(kicad_pcb (version 20211014) (generator pcbnew)

  (general
    (thickness 1.6)
  )

  (paper "A4")
  (layers
    (0 "F.Cu" signal)
    (31 "B.Cu" signal)
    (32 "B.Adhes" user "B.Adhesive")
    (33 "F.Adhes" user "F.Adhesive")
    (34 "B.Paste" user)
    (35 "F.Paste" user)
    (36 "B.SilkS" user "B.Silkscreen")
    (37 "F.SilkS" user "F.Silkscreen")
    (38 "B.Mask" user)
    (39 "F.Mask" user)
    (40 "Dwgs.User" user "User.Drawings")
    (41 "Cmts.User" user "User.Comments")
    (42 "Eco1.User" user "User.Eco1")
    (43 "Eco2.User" user "User.Eco2")
    (44 "Edge.Cuts" user)
    (45 "Margin" user)
    (46 "B.CrtYd" user "B.Courtyard")
    (47 "F.CrtYd" user "F.Courtyard")
    (48 "B.Fab" user)
    (49 "F.Fab" user)
  )

  (setup
    (pad_to_mask_clearance 0.051)
    (solder_mask_min_width 0.25)
    (aux_axis_origin 124.206 69.85)
    (pcbplotparams
      (layerselection 0x00010fc_ffffffff)
      (disableapertmacros false)
      (usegerberextensions false)
      (usegerberattributes false)
      (usegerberadvancedattributes false)
      (creategerberjobfile false)
      (svguseinch false)
      (svgprecision 6)
      (excludeedgelayer true)
      (plotframeref false)
      (viasonmask false)
      (mode 1)
      (useauxorigin false)
      (hpglpennumber 1)
      (hpglpenspeed 20)
      (hpglpendiameter 15.000000)
      (dxfpolygonmode true)
      (dxfimperialunits true)
      (dxfusepcbnewfont true)
      (psnegative false)
      (psa4output false)
      (plotreference true)
      (plotvalue true)
      (plotinvisibletext false)
      (sketchpadsonfab false)
      (subtractmaskfromsilk false)
      (outputformat 1)
      (mirror false)
      (drillshape 1)
      (scaleselection 1)
      (outputdirectory "")
    )
  )

  (net 0 "")
  (net 1 "Net-(C1-Pad1)")
  (net 2 "GND")
  (net 3 "Net-(C2-Pad1)")
  (net 4 "Net-(J1-Pad1)")
  (net 5 "Net-(J1-Pad2)")
  (net 6 "Net-(J2-Pad2)")
  (net 7 "Net-(J3-Pad3)")
  (net 8 "Net-(J3-Pad4)")
  (net 9 "Net-(J3-Pad2)")
  (net 10 "Net-(R2-Pad2)")
  (net 11 "Net-(R3-Pad2)")

  (footprint "Connector_PinHeader_2.54mm:PinHeader_1x03_P2.54mm_Vertical" (layer "F.Cu")
    (tedit 59FED5CC) (tstamp 00000000-0000-0000-0000-00005c0024a0)
    (at 126.238 61.722)
    (descr "Through hole straight pin header, 1x03, 2.54mm pitch, single row")
    (tags "Through hole pin header THT 1x03 2.54mm single row")
    (path "/00000000-0000-0000-0000-00005bf283a4")
    (attr through_hole)
    (fp_text reference "J1" (at 0 -2.33) (layer "F.SilkS")
      (effects (font (size 1 1) (thickness 0.1)))
      (tstamp 712d6a7d-2b62-464f-b745-fd2a6b0187f6)
    )
    (fp_text value "CON" (at 0 7.41) (layer "F.Fab")
      (effects (font (size 1 1) (thickness 0.15)))
      (tstamp b3d08afa-f296-4e3b-8825-73b6331d35bf)
    )
    (fp_text user "${REFERENCE}" (at 0 2.54 90) (layer "F.Fab")
      (effects (font (size 1 1) (thickness 0.15)))
      (tstamp 48f827a8-6e22-4a2e-abdc-c2a03098d883)
    )
    (fp_line (start -1.33 6.41) (end 1.33 6.41) (layer "F.SilkS") (width 0.12) (tstamp 0dcdf1b8-13c6-48b4-bd94-5d26038ff231))
    (fp_line (start -1.33 -1.33) (end 0 -1.33) (layer "F.SilkS") (width 0.12) (tstamp 13475e15-f37c-4de8-857e-1722b0c39513))
    (fp_line (start 1.33 1.27) (end 1.33 6.41) (layer "F.SilkS") (width 0.12) (tstamp 58dc14f9-c158-4824-a84e-24a6a482a7a4))
    (fp_line (start -1.33 0) (end -1.33 -1.33) (layer "F.SilkS") (width 0.12) (tstamp b635b16e-60bb-4b3e-9fc3-47d34eef8381))
    (fp_line (start -1.33 1.27) (end -1.33 6.41) (layer "F.SilkS") (width 0.12) (tstamp dde3dba8-1b81-466c-93a3-c284ff4da1ef))
    (fp_line (start -1.33 1.27) (end 1.33 1.27) (layer "F.SilkS") (width 0.12) (tstamp f976e2cc-36f9-4479-a816-2c74d1d5da6f))
    (fp_line (start 1.8 6.85) (end 1.8 -1.8) (layer "F.CrtYd") (width 0.05) (tstamp 120a7b0f-ddfd-4447-85c1-35665465acdb))
    (fp_line (start -1.8 -1.8) (end -1.8 6.85) (layer "F.CrtYd") (width 0.05) (tstamp 2732632c-4768-42b6-bf7f-14643424019e))
    (fp_line (start -1.8 6.85) (end 1.8 6.85) (layer "F.CrtYd") (width 0.05) (tstamp 854dd5d4-5fd2-4730-bd49-a9cd8299a065))
    (fp_line (start 1.8 -1.8) (end -1.8 -1.8) (layer "F.CrtYd") (width 0.05) (tstamp 8d55e186-3e11-40e8-a65e-b36a8a00069e))
    (fp_line (start -1.27 6.35) (end -1.27 -0.635) (layer "F.Fab") (width 0.1) (tstamp 03d88a85-11fd-47aa-954c-c318bb15294a))
    (fp_line (start -1.27 -0.635) (end -0.635 -1.27) (layer "F.Fab") (width 0.1) (tstamp 1a2f72d1-0b36-4610-afc4-4ad1660d5d3b))
    (fp_line (start 1.27 6.35) (end -1.27 6.35) (layer "F.Fab") (width 0.1) (tstamp 51c4dc0a-5b9f-4edf-a83f-4a12881e42ef))
    (fp_line (start 1.27 -1.27) (end 1.27 6.35) (layer "F.Fab") (width 0.1) (tstamp 842e430f-0c35-45f3-a0b5-95ae7b7ae388))
    (fp_line (start -0.635 -1.27) (end 1.27 -1.27) (layer "F.Fab") (width 0.1) (tstamp 98e81e80-1f85-4152-be3f-99785ea97751))
    (pad "1" thru_hole rect locked (at 0 0) (size 1.7 1.7) (drill 1) (layers *.Cu *.Mask)
      (net 4 "Net-(J1-Pad1)") (tstamp e877bf4a-4210-4bd3-b7b0-806eb4affc5b))
    (pad "2" thru_hole oval locked (at 0 2.54) (size 1.7 1.7) (drill 1) (layers *.Cu *.Mask)
      (net 5 "Net-(J1-Pad2)") (tstamp cef6f603-8a0b-4dd0-af99-ebfbef7d1b4b))
    (pad "3" thru_hole oval locked (at 0 5.08) (size 1.7 1.7) (drill 1) (layers *.Cu *.Mask)
      (net 2 "GND") (tstamp 9c8ccb2a-b1e9-4f2c-94fe-301b5975277e))
    (model "${KISYS3DMOD}/Connector_PinHeader_2.54mm.3dshapes/PinHeader_1x03_P2.54mm_Vertical.wrl"
      (offset (xyz 0 0 0))
      (scale (xyz 1 1 1))
      (rotate (xyz 0 0 0))
    )
  )

  (footprint "Connector_PinHeader_2.54mm:PinHeader_1x02_P2.54mm_Vertical" (layer "F.Cu")
    (tedit 5C31E27D) (tstamp 00000000-0000-0000-0000-00005c0024b6)
    (at 137.2 59.182 -90)
    (descr "Through hole straight pin header, 1x02, 2.54mm pitch, single row")
    (tags "Through hole pin header THT 1x02 2.54mm single row")
    (path "/00000000-0000-0000-0000-00005bf28969")
    (attr through_hole)
    (fp_text reference "J2" (at 0 4.612 -90) (layer "F.SilkS")
      (effects (font (size 1 1) (thickness 0.1)))
      (tstamp 6a44418c-7bb4-4e99-8836-57f153c19721)
    )
    (fp_text value "3V_ENABLE" (at -0.762 -5.802) (layer "F.SilkS")
      (effects (font (size 1 1) (thickness 0.1)))
      (tstamp 0147f16a-c952-4891-8f53-a9fb8cddeb8d)
    )
    (fp_text user "${REFERENCE}" (at 0 1.27) (layer "F.Fab")
      (effects (font (size 1 1) (thickness 0.15)))
      (tstamp a05d7640-f2f6-4ba7-8c51-5a4af431fc13)
    )
    (fp_line (start 1.33 1.27) (end 1.33 3.87) (layer "F.SilkS") (width 0.12) (tstamp 0a3cc030-c9dd-4d74-9d50-715ed2b361a2))
    (fp_line (start -1.33 3.87) (end 1.33 3.87) (layer "F.SilkS") (width 0.12) (tstamp 15875808-74d5-4210-b8ca-aa8fbc04ae21))
    (fp_line (start -1.33 1.27) (end 1.33 1.27) (layer "F.SilkS") (width 0.12) (tstamp 8322f275-268c-4e87-a69f-4cfbf05e747f))
    (fp_line (start -1.33 0) (end -1.33 -1.33) (layer "F.SilkS") (width 0.12) (tstamp b6270a28-e0d9-4655-a18a-03dbf007b940))
    (fp_line (start -1.33 1.27) (end -1.33 3.87) (layer "F.SilkS") (width 0.12) (tstamp dd00c2e1-6027-4717-b312-4fab3ee52002))
    (fp_line (start -1.33 -1.33) (end 0 -1.33) (layer "F.SilkS") (width 0.12) (tstamp f3490fa5-5a27-423b-af60-53609669542c))
    (fp_line (start -1.8 -1.8) (end -1.8 4.35) (layer "F.CrtYd") (width 0.05) (tstamp 1860e030-7a36-4298-b7fc-a16d48ab15ba))
    (fp_line (start 1.8 -1.8) (end -1.8 -1.8) (layer "F.CrtYd") (width 0.05) (tstamp 32667662-ae86-4904-b198-3e95f11851bf))
    (fp_line (start -1.8 4.35) (end 1.8 4.35) (layer "F.CrtYd") (width 0.05) (tstamp 3dcc657b-55a1-48e0-9667-e01e7b6b08b5))
    (fp_line (start 1.8 4.35) (end 1.8 -1.8) (layer "F.CrtYd") (width 0.05) (tstamp 67f6e996-3c99-493c-8f6f-e739e2ed5d7a))
    (fp_line (start 1.27 3.81) (end -1.27 3.81) (layer "F.Fab") (width 0.1) (tstamp 0d0bb7b2-a6e5-46d2-9492-a1aa6e5a7b2f))
    (fp_line (start -1.27 -0.635) (end -0.635 -1.27) (layer "F.Fab") (width 0.1) (tstamp 81bbc3ff-3938-49ac-8297-ce2bcc9a42bd))
    (fp_line (start -1.27 3.81) (end -1.27 -0.635) (layer "F.Fab") (width 0.1) (tstamp b1169a2d-8998-4b50-a48d-c520bcc1b8e1))
    (fp_line (start -0.635 -1.27) (end 1.27 -1.27) (layer "F.Fab") (width 0.1) (tstamp d1262c4d-2245-4c4f-8f35-7bb32cd9e21e))
    (fp_line (start 1.27 -1.27) (end 1.27 3.81) (layer "F.Fab") (width 0.1) (tstamp d22e95aa-f3db-4fbc-a331-048a2523233e))
    (pad "1" thru_hole rect locked (at 0 0 270) (size 1.7 1.7) (drill 1) (layers *.Cu *.Mask)
      (net 1 "Net-(C1-Pad1)") (tstamp 13abf99d-5265-4779-8973-e94370fd18ff))
    (pad "2" thru_hole oval locked (at 0 2.54 270) (size 1.7 1.7) (drill 1) (layers *.Cu *.Mask)
      (net 6 "Net-(J2-Pad2)") (tstamp a7520ad3-0f8b-4788-92d4-8ffb277041e6))
    (model "${KISYS3DMOD}/Connector_PinHeader_2.54mm.3dshapes/PinHeader_1x02_P2.54mm_Vertical.wrl"
      (offset (xyz 0 0 0))
      (scale (xyz 1 1 1))
      (rotate (xyz 0 0 0))
    )
  )

  (footprint "digikey-footprints:USB_Micro_B_Female_10118193-0001LF" (layer "F.Cu")
    (tedit 5B071FB0) (tstamp 00000000-0000-0000-0000-00005c0024d6)
    (at 151.3 63.3 90)
    (descr "http://portal.fciconnect.com/Comergent//fci/drawing/10118193.pdf")
    (path "/00000000-0000-0000-0000-00005bf27918")
    (attr through_hole)
    (fp_text reference "J3" (at 5.134 -2.202 180) (layer "F.SilkS")
      (effects (font (size 1 1) (thickness 0.1)))
      (tstamp 78cbdd6c-4878-4cc5-9a58-0e506478e37d)
    )
    (fp_text value "USB_B_Micro" (at 5.3 -2.6 180) (layer "F.Fab")
      (effects (font (size 1 1) (thickness 0.15)))
      (tstamp 6e105729-aba0-497c-a99e-c32d2b3ddb6d)
    )
    (fp_text user "${REFERENCE}" (at -0.02 0.06 90) (layer "F.Fab")
      (effects (font (size 1 1) (thickness 0.15)))
      (tstamp c022004a-c968-410e-b59e-fbab0e561e9d)
    )
    (fp_line (start 3.5 2.9) (end 4 2.9) (layer "F.SilkS") (width 0.1) (tstamp 3f5fe6b7-98fc-4d3e-9567-f9f7202d1455))
    (fp_line (start -4 2.9) (end -3.2 2.9) (layer "F.SilkS") (width 0.1) (tstamp 5cbb5968-dbb5-4b84-864a-ead1cacf75b9))
    (fp_line (start 4 -3) (end 4 -2.2) (layer "F.SilkS") (width 0.1) (tstamp 6a955fc7-39d9-4c75-9a69-676ca8c0b9b2))
    (fp_line (start -4 -2.1) (end -4.1 -2.1) (layer "F.SilkS") (width 0.1) (tstamp 71c31975-2c45-4d18-a25a-18e07a55d11e))
    (fp_line (start -4 -2.4) (end -4 -2.1) (layer "F.SilkS") (width 0.1) (tstamp 746ba970-8279-4e7b-aed3-f28687777c21))
    (fp_line (start -4 2.8) (end -4 2.9) (layer "F.SilkS") (width 0.1) (tstamp afb8e687-4a13-41a1-b8c0-89a749e897fe))
    (fp_line (start 4 2.9) (end 4 1.9) (layer "F.SilkS") (width 0.1) (tstamp bb7f0588-d4d8-44bf-9ebf-3c533fe4d6ae))
    (fp_line (start -4 2.2) (end -4 2.8) (layer "F.SilkS") (width 0.1) (tstamp da469d11-a8a4-414b-9449-d151eeaf4853))
    (fp_line (start -3.4 -3) (end -4 -2.4) (layer "F.SilkS") (width 0.1) (tstamp e10b5627-3247-4c86-b9f6-ef474ca11543))
    (fp_line (start -3.1 -3) (end -3.4 -3) (layer "F.SilkS") (width 0.1) (tstamp e8314017-7be6-4011-9179-37449a29b311))
    (fp_line (start 3.6 -3) (end 4 -3) (layer "F.SilkS") (width 0.1) (tstamp f1830a1b-f0cc-47ae-a2c9-679c82032f14))
    (fp_line (start 4.25 -3.75) (end 4.25 3) (layer "F.CrtYd") (width 0.05) (tstamp 62c076a3-d618-44a2-9042-9a08b3576787))
    (fp_line (start -4.25 -3.75) (end -4.25 3) (layer "F.CrtYd") (width 0.05) (tstamp 983c426c-24e0-4c65-ab69-1f1824adc5c6))
    (fp_line (start -4.25 3) (end 4.25 3) (layer "F.CrtYd") (width 0.05) (tstamp c1d83899-e380-49f9-a87d-8e78bc089ebf))
    (fp_line (start -4.25 -3.75) (end 4.25 -3.75) (layer "F.CrtYd") (width 0.05) (tstamp e9bb29b2-2bb9-4ea2-acd9-2bb3ca677a12))
    (fp_line (start -3.93 2.75) (end -3.93 -2.34) (layer "F.Fab") (width 0.1) (tstamp 10109f84-4940-47f8-8640-91f185ac9bc1))
    (fp_line (start -3.93 2.75) (end 3.93 2.75) (layer "F.Fab") (width 0.1) (tstamp 47baf4b1-0938-497d-88f9-671136aa8be7))
    (fp_line (start 3.93 -2.9) (end -3.37 -2.9) (layer "F.Fab") (width 0.1) (tstamp 55e740a3-0735-4744-896e-2bf5437093b9))
    (fp_line (start 3.93 2.75) (end 3.93 -2.9) (layer "F.Fab") (width 0.1) (tstamp 77ed3941-d133-4aef-a9af-5a39322d14eb))
    (fp_line (start -3.93 -2.34) (end -3.37 -2.9) (layer "F.Fab") (width 0.1) (tstamp f4f99e3d-7269-4f6a-a759-16ad2a258779))
    (pad "1" smd rect locked (at -1.3 -2.675 90) (size 0.4 1.35) (layers "F.Cu" "F.Paste" "F.Mask")
      (net 3 "Net-(C2-Pad1)") (tstamp eb667eea-300e-4ca7-8a6f-4b00de80cd45))
    (pad "2" smd rect locked (at -0.65 -2.675 90) (size 0.4 1.35) (layers "F.Cu" "F.Paste" "F.Mask")
      (net 9 "Net-(J3-Pad2)") (tstamp 44d8279a-9cd1-4db6-856f-0363131605fc))
    (pad "3" smd rect locked (at 0 -2.675 90) (size 0.4 1.35) (layers "F.Cu" "F.Paste" "F.Mask")
      (net 7 "Net-(J3-Pad3)") (tstamp e615f7aa-337e-474d-9615-2ad82b1c44ca))
    (pad "4" smd rect locked (at 0.65 -2.675 90) (size 0.4 1.35) (layers "F.Cu" "F.Paste" "F.Mask")
      (net 8 "Net-(J3-Pad4)") (tstamp 4fb02e58-160a-4a39-9f22-d0c75e82ee72))
    (pad "5" smd rect locked (at 1.3 -2.675 90) (size 0.4 1.35) (layers "F.Cu" "F.Paste" "F.Mask")
      (net 2 "GND") (tstamp ef8fe2ac-6a7f-4682-9418-b801a1b10a3b))
    (pad "SH" thru_hole oval locked (at 3.55 0 90) (size 0.9 1.6) (drill oval 0.5 1.2) (layers *.Cu *.Mask) (tstamp 66116376-6967-4178-9f23-a26cdeafc400))
    (pad "SH" thru_hole oval locked (at -3.55 0 90) (size 0.9 1.6) (drill oval 0.5 1.2) (layers *.Cu *.Mask) (tstamp 749dfe75-c0d6-4872-9330-29c5bbcb8ff8))
  )

  (footprint "Package_SO:SOIC-8_3.9x4.9mm_P1.27mm" (layer "F.Cu")
    (tedit 5A02F2D3) (tstamp 00000000-0000-0000-0000-00005c002526)
    (at 135.9 65.7)
    (descr "8-Lead Plastic Small Outline (SN) - Narrow, 3.90 mm Body [SOIC] (see Microchip Packaging Specification 00000049BS.pdf)")
    (tags "SOIC 1.27")
    (path "/00000000-0000-0000-0000-00005bf27813")
    (attr smd)
    (fp_text reference "U1" (at -3.058 -3.5) (layer "F.SilkS")
      (effects (font (size 1 1) (thickness 0.1)))
      (tstamp 87371631-aa02-498a-998a-09bdb74784c1)
    )
    (fp_text value "PL2303SA" (at 0 3.5) (layer "F.Fab")
      (effects (font (size 1 1) (thickness 0.15)))
      (tstamp 2e642b3e-a476-4c54-9a52-dcea955640cd)
    )
    (fp_text user "${REFERENCE}" (at 0 0) (layer "F.Fab")
      (effects (font (size 1 1) (thickness 0.15)))
      (tstamp 5038e144-5119-49db-b6cf-f7c345f1cf03)
    )
    (fp_line (start 2.075 2.575) (end 2.075 2.43) (layer "F.SilkS") (width 0.15) (tstamp 127679a9-3981-4934-815e-896a4e3ff56e))
    (fp_line (start -2.075 2.575) (end -2.075 2.43) (layer "F.SilkS") (width 0.15) (tstamp 48ab88d7-7084-4d02-b109-3ad55a30bb11))
    (fp_line (start 2.075 -2.575) (end 2.075 -2.43) (layer "F.SilkS") (width 0.15) (tstamp 716e31c5-485f-40b5-88e3-a75900da9811))
    (fp_line (start -2.075 -2.525) (end -3.475 -2.525) (layer "F.SilkS") (width 0.15) (tstamp 8174b4de-74b1-48db-ab8e-c8432251095b))
    (fp_line (start -2.075 -2.575) (end -2.075 -2.525) (layer "F.SilkS") (width 0.15) (tstamp b1086f75-01ba-4188-8d36-75a9e2828ca9))
    (fp_line (start -2.075 -2.575) (end 2.075 -2.575) (layer "F.SilkS") (width 0.15) (tstamp f71da641-16e6-4257-80c3-0b9d804fee4f))
    (fp_line (start -2.075 2.575) (end 2.075 2.575) (layer "F.SilkS") (width 0.15) (tstamp fd470e95-4861-44fe-b1e4-6d8a7c66e144))
    (fp_line (start 3.73 -2.7) (end 3.73 2.7) (layer "F.CrtYd") (width 0.05) (tstamp 5fc27c35-3e1c-4f96-817c-93b5570858a6))
    (fp_line (start -3.73 2.7) (end 3.73 2.7) (layer "F.CrtYd") (width 0.05) (tstamp 6a45789b-3855-401f-8139-3c734f7f52f9))
    (fp_line (start -3.73 -2.7) (end 3.73 -2.7) (layer "F.CrtYd") (width 0.05) (tstamp 6c9b793c-e74d-4754-a2c0-901e73b26f1c))
    (fp_line (start -3.73 -2.7) (end -3.73 2.7) (layer "F.CrtYd") (width 0.05) (tstamp efeac2a2-7682-4dc7-83ee-f6f1b23da506))
    (fp_line (start 1.95 -2.45) (end 1.95 2.45) (layer "F.Fab") (width 0.1) (tstamp 54365317-1355-4216-bb75-829375abc4ec))
    (fp_line (start 1.95 2.45) (end -1.95 2.45) (layer "F.Fab") (width 0.1) (tstamp a3e4f0ae-9f86-49e9-b386-ed8b42e012fb))
    (fp_line (start -1.95 2.45) (end -1.95 -1.45) (layer "F.Fab") (width 0.1) (tstamp a690fc6c-55d9-47e6-b533-faa4b67e20f3))
    (fp_line (start -0.95 -2.45) (end 1.95 -2.45) (layer "F.Fab") (width 0.1) (tstamp ac264c30-3e9a-4be2-b97a-9949b68bd497))
    (fp_line (start -1.95 -1.45) (end -0.95 -2.45) (layer "F.Fab") (width 0.1) (tstamp c144caa5-b0d4-4cef-840a-d4ad178a2102))
    (pad "1" smd rect locked (at -2.7 -1.905) (size 1.55 0.6) (layers "F.Cu" "F.Paste" "F.Mask")
      (net 2 "GND") (tstamp 704d6d51-bb34-4cbf-83d8-841e208048d8))
    (pad "2" smd rect locked (at -2.7 -0.635) (size 1.55 0.6) (layers "F.Cu" "F.Paste" "F.Mask")
      (net 4 "Net-(J1-Pad1)") (tstamp 0eaa98f0-9565-4637-ace3-42a5231b07f7))
    (pad "3" smd rect locked (at -2.7 0.635) (size 1.55 0.6) (layers "F.Cu" "F.Paste" "F.Mask")
      (net 6 "Net-(J2-Pad2)") (tstamp 181abe7a-f941-42b6-bd46-aaa3131f90fb))
    (pad "4" smd rect locked (at -2.7 1.905) (size 1.55 0.6) (layers "F.Cu" "F.Paste" "F.Mask")
      (net 5 "Net-(J1-Pad2)") (tstamp ce83728b-bebd-48c2-8734-b6a50d837931))
    (pad "5" smd rect locked (at 2.7 1.905) (size 1.55 0.6) (layers "F.Cu" "F.Paste" "F.Mask")
      (net 10 "Net-(R2-Pad2)") (tstamp c41b3c8b-634e-435a-b582-96b83bbd4032))
    (pad "6" smd rect locked (at 2.7 0.635) (size 1.55 0.6) (layers "F.Cu" "F.Paste" "F.Mask")
      (net 11 "Net-(R3-Pad2)") (tstamp 9340c285-5767-42d5-8b6d-63fe2a40ddf3))
    (pad "7" smd rect locked (at 2.7 -0.635) (size 1.55 0.6) (layers "F.Cu" "F.Paste" "F.Mask")
      (net 3 "Net-(C2-Pad1)") (tstamp 1831fb37-1c5d-42c4-b898-151be6fca9dc))
    (pad "8" smd rect locked (at 2.7 -1.905) (size 1.55 0.6) (layers "F.Cu" "F.Paste" "F.Mask")
      (net 1 "Net-(C1-Pad1)") (tstamp 0f22151c-f260-4674-b486-4710a2c42a55))
    (model "${KISYS3DMOD}/Package_SO.3dshapes/SOIC-8_3.9x4.9mm_P1.27mm.wrl"
      (offset (xyz 0 0 0))
      (scale (xyz 1 1 1))
      (rotate (xyz 0 0 0))
    )
  )

  (footprint "Resistor_SMD:R_0603_1608Metric_Pad1.05x0.95mm_HandSolder" (layer "F.Cu")
    (tedit 5B301BBD) (tstamp 00000000-0000-0000-0000-00005c4b2da3)
    (at 144.78 63.3)
    (descr "Resistor SMD 0603 (1608 Metric), square (rectangular) end terminal, IPC_7351 nominal with elongated pad for handsoldering. (Body size source: http://www.tortai-tech.com/upload/download/2011102023233369053.pdf), generated with kicad-footprint-generator")
    (tags "resistor handsolder")
    (path "/00000000-0000-0000-0000-00005bf27c43")
    (attr smd)
    (fp_text reference "R1" (at 0 -1.43) (layer "F.SilkS")
      (effects (font (size 1 1) (thickness 0.1)))
      (tstamp 0867287d-2e6a-4d69-a366-c29f88198f2b)
    )
    (fp_text value "1.5K" (at 0 1.43) (layer "F.Fab")
      (effects (font (size 1 1) (thickness 0.15)))
      (tstamp afd3dbad-e7a8-4e4c-b77c-4065a69aefa2)
    )
    (fp_text user "${REFERENCE}" (at 0 0) (layer "F.Fab")
      (effects (font (size 0.4 0.4) (thickness 0.06)))
      (tstamp c201e1b2-fc01-4110-bdaa-a33290468c83)
    )
    (fp_line (start -0.171267 -0.51) (end 0.171267 -0.51) (layer "F.SilkS") (width 0.12) (tstamp 38f2d955-ea7a-4a21-aba6-02ae23f1bd4a))
    (fp_line (start -0.171267 0.51) (end 0.171267 0.51) (layer "F.SilkS") (width 0.12) (tstamp 6b25f522-8e2d-4cd8-9d5d-a2b80f60133b))
    (fp_line (start 1.65 0.73) (end -1.65 0.73) (layer "F.CrtYd") (width 0.05) (tstamp 417f13e4-c121-485a-a6b5-8b55e70350b8))
    (fp_line (start 1.65 -0.73) (end 1.65 0.73) (layer "F.CrtYd") (width 0.05) (tstamp 9dab0cb7-2557-4419-963b-5ae736517f62))
    (fp_line (start -1.65 0.73) (end -1.65 -0.73) (layer "F.CrtYd") (width 0.05) (tstamp dabe541b-b164-4180-97a4-5ca761b86800))
    (fp_line (start -1.65 -0.73) (end 1.65 -0.73) (layer "F.CrtYd") (width 0.05) (tstamp e12e827e-36be-4503-8eef-6fc7e8bc5d49))
    (fp_line (start -0.8 -0.4) (end 0.8 -0.4) (layer "F.Fab") (width 0.1) (tstamp 0f41a909-27c4-4be2-9d5e-9ae2108c8ff5))
    (fp_line (start -0.8 0.4) (end -0.8 -0.4) (layer "F.Fab") (width 0.1) (tstamp 1b54105e-6590-4d26-a763-ecfcf81eedc4))
    (fp_line (start 0.8 0.4) (end -0.8 0.4) (layer "F.Fab") (width 0.1) (tstamp 35354519-a28c-40c4-befd-0943e98dea53))
    (fp_line (start 0.8 -0.4) (end 0.8 0.4) (layer "F.Fab") (width 0.1) (tstamp 632acde9-b7fd-4f04-8cb4-d2cbb06b3595))
    (pad "1" smd roundrect locked (at -0.875 0) (size 1.05 0.95) (layers "F.Cu" "F.Paste" "F.Mask") (roundrect_rratio 0.25)
      (net 1 "Net-(C1-Pad1)") (tstamp 0088d107-13d8-496c-8da6-7bbeb9d096b0))
    (pad "2" smd roundrect locked (at 0.875 0) (size 1.05 0.95) (layers "F.Cu" "F.Paste" "F.Mask") (roundrect_rratio 0.25)
      (net 7 "Net-(J3-Pad3)") (tstamp 6a780180-586a-4241-a52d-dc7a5ffcc966))
    (model "${KISYS3DMOD}/Resistor_SMD.3dshapes/R_0603_1608Metric.wrl"
      (offset (xyz 0 0 0))
      (scale (xyz 1 1 1))
      (rotate (xyz 0 0 0))
    )
  )

  (footprint "Resistor_SMD:R_0603_1608Metric_Pad1.05x0.95mm_HandSolder" (layer "F.Cu")
    (tedit 5B301BBD) (tstamp 00000000-0000-0000-0000-00005c4b2db3)
    (at 144.4 67.9 180)
    (descr "Resistor SMD 0603 (1608 Metric), square (rectangular) end terminal, IPC_7351 nominal with elongated pad for handsoldering. (Body size source: http://www.tortai-tech.com/upload/download/2011102023233369053.pdf), generated with kicad-footprint-generator")
    (tags "resistor handsolder")
    (path "/00000000-0000-0000-0000-00005bf27cc1")
    (attr smd)
    (fp_text reference "R2" (at -2.92 -0.426 180) (layer "F.SilkS")
      (effects (font (size 1 1) (thickness 0.1)))
      (tstamp ec9e24d8-d1c5-40e2-9812-dc315d05f470)
    )
    (fp_text value "27" (at 0 1.43 180) (layer "F.Fab")
      (effects (font (size 1 1) (thickness 0.15)))
      (tstamp 9702d639-3b1f-4825-8985-b32b9008503d)
    )
    (fp_text user "${REFERENCE}" (at 0 0 180) (layer "F.Fab")
      (effects (font (size 0.4 0.4) (thickness 0.06)))
      (tstamp 0d35483a-0b12-46cc-b9f2-896fd6831779)
    )
    (fp_line (start -0.171267 0.51) (end 0.171267 0.51) (layer "F.SilkS") (width 0.12) (tstamp 34871042-9d5c-4e29-abdd-a168368c3c22))
    (fp_line (start -0.171267 -0.51) (end 0.171267 -0.51) (layer "F.SilkS") (width 0.12) (tstamp ef1b4b98-541b-4673-a04f-2043250fc40a))
    (fp_line (start 1.65 -0.73) (end 1.65 0.73) (layer "F.CrtYd") (width 0.05) (tstamp 4412226e-d975-40a2-921f-502ff4129a95))
    (fp_line (start 1.65 0.73) (end -1.65 0.73) (layer "F.CrtYd") (width 0.05) (tstamp 4e66a44f-7fa6-4e16-bf9b-62ec864301a5))
    (fp_line (start -1.65 0.73) (end -1.65 -0.73) (layer "F.CrtYd") (width 0.05) (tstamp 53c85970-3e21-4fae-a84f-721cfc0513b5))
    (fp_line (start -1.65 -0.73) (end 1.65 -0.73) (layer "F.CrtYd") (width 0.05) (tstamp 7447a6e7-8205-46ba-afca-d0fa8f90c95a))
    (fp_line (start -0.8 -0.4) (end 0.8 -0.4) (layer "F.Fab") (width 0.1) (tstamp 2bf3f24b-fd30-41a7-a274-9b519491916b))
    (fp_line (start -0.8 0.4) (end -0.8 -0.4) (layer "F.Fab") (width 0.1) (tstamp 4831966c-bb32-4bc8-a400-0382a02ffa1c))
    (fp_line (start 0.8 0.4) (end -0.8 0.4) (layer "F.Fab") (width 0.1) (tstamp a9ec539a-d80d-40cc-803c-12b6adefe42a))
    (fp_line (start 0.8 -0.4) (end 0.8 0.4) (layer "F.Fab") (width 0.1) (tstamp c264c438-a475-4ad4-9915-0f1e6ecf3053))
    (pad "1" smd roundrect locked (at -0.875 0 180) (size 1.05 0.95) (layers "F.Cu" "F.Paste" "F.Mask") (roundrect_rratio 0.25)
      (net 7 "Net-(J3-Pad3)") (tstamp 4d4b0fcd-2c79-4fc3-b5fa-7a0741601344))
    (pad "2" smd roundrect locked (at 0.875 0 180) (size 1.05 0.95) (layers "F.Cu" "F.Paste" "F.Mask") (roundrect_rratio 0.25)
      (net 10 "Net-(R2-Pad2)") (tstamp e25ce415-914a-48fe-bf09-324317917b2e))
    (model "${KISYS3DMOD}/Resistor_SMD.3dshapes/R_0603_1608Metric.wrl"
      (offset (xyz 0 0 0))
      (scale (xyz 1 1 1))
      (rotate (xyz 0 0 0))
    )
  )

  (footprint "Resistor_SMD:R_0603_1608Metric_Pad1.05x0.95mm_HandSolder" (layer "F.Cu")
    (tedit 5B301BBD) (tstamp 00000000-0000-0000-0000-00005c4b2dc3)
    (at 144.4 66.3 180)
    (descr "Resistor SMD 0603 (1608 Metric), square (rectangular) end terminal, IPC_7351 nominal with elongated pad for handsoldering. (Body size source: http://www.tortai-tech.com/upload/download/2011102023233369053.pdf), generated with kicad-footprint-generator")
    (tags "resistor handsolder")
    (path "/00000000-0000-0000-0000-00005bf27dbc")
    (attr smd)
    (fp_text reference "R3" (at -2.92 -0.248 180) (layer "F.SilkS")
      (effects (font (size 1 1) (thickness 0.1)))
      (tstamp 909b030b-fa1a-4fe8-b1ee-422b4d9e23cf)
    )
    (fp_text value "27" (at 0 1.43 180) (layer "F.Fab")
      (effects (font (size 1 1) (thickness 0.15)))
      (tstamp 936e2ca6-11ae-4f42-9128-52bb329f3d21)
    )
    (fp_text user "${REFERENCE}" (at 0 0 180) (layer "F.Fab")
      (effects (font (size 0.4 0.4) (thickness 0.06)))
      (tstamp b60c50d1-225e-415c-8712-7acb5e3dc8ea)
    )
    (fp_line (start -0.171267 0.51) (end 0.171267 0.51) (layer "F.SilkS") (width 0.12) (tstamp 3cfcbcc7-4f45-46ab-82a8-c414c7972161))
    (fp_line (start -0.171267 -0.51) (end 0.171267 -0.51) (layer "F.SilkS") (width 0.12) (tstamp a501555e-bbc7-4b58-ad89-28a0cd3dd6d0))
    (fp_line (start -1.65 0.73) (end -1.65 -0.73) (layer "F.CrtYd") (width 0.05) (tstamp 2f3deced-880d-4075-a81b-95c62da5b94d))
    (fp_line (start -1.65 -0.73) (end 1.65 -0.73) (layer "F.CrtYd") (width 0.05) (tstamp 4d609e7c-74c9-4ae9-a26d-946ff00c167d))
    (fp_line (start 1.65 -0.73) (end 1.65 0.73) (layer "F.CrtYd") (width 0.05) (tstamp 786b6072-5772-4bc1-8eeb-6c4e19f2a91b))
    (fp_line (start 1.65 0.73) (end -1.65 0.73) (layer "F.CrtYd") (width 0.05) (tstamp 9a9f2d82-f64d-4264-8bec-c182528fc4de))
    (fp_line (start 0.8 -0.4) (end 0.8 0.4) (layer "F.Fab") (width 0.1) (tstamp 0c30a4be-5679-499f-8c5b-5f3024f9d6cf))
    (fp_line (start -0.8 -0.4) (end 0.8 -0.4) (layer "F.Fab") (width 0.1) (tstamp 4dc6088c-89a5-4db7-b3ae-db4b6396ad49))
    (fp_line (start 0.8 0.4) (end -0.8 0.4) (layer "F.Fab") (width 0.1) (tstamp db83d0af-e085-4050-8496-fa2ebdecbd62))
    (fp_line (start -0.8 0.4) (end -0.8 -0.4) (layer "F.Fab") (width 0.1) (tstamp ebadd2a5-21ab-4a7e-b5bc-6f737367e560))
    (pad "1" smd roundrect locked (at -0.875 0 180) (size 1.05 0.95) (layers "F.Cu" "F.Paste" "F.Mask") (roundrect_rratio 0.25)
      (net 9 "Net-(J3-Pad2)") (tstamp 7e08f2a4-63d6-468b-bd8b-ec607077e023))
    (pad "2" smd roundrect locked (at 0.875 0 180) (size 1.05 0.95) (layers "F.Cu" "F.Paste" "F.Mask") (roundrect_rratio 0.25)
      (net 11 "Net-(R3-Pad2)") (tstamp b6bcc3cf-50de-4a33-bc41-678825c1ecf2))
    (model "${KISYS3DMOD}/Resistor_SMD.3dshapes/R_0603_1608Metric.wrl"
      (offset (xyz 0 0 0))
      (scale (xyz 1 1 1))
      (rotate (xyz 0 0 0))
    )
  )

  (footprint "Capacitor_Tantalum_SMD:CP_EIA-1608-08_AVX-J_Pad1.25x1.05mm_HandSolder" (layer "F.Cu")
    (tedit 5B301BBE) (tstamp 00000000-0000-0000-0000-00005c4b2e61)
    (at 140.97 64.262 90)
    (descr "Tantalum Capacitor SMD AVX-J (1608-08 Metric), IPC_7351 nominal, (Body size from: https://www.vishay.com/docs/48064/_t58_vmn_pt0471_1601.pdf), generated with kicad-footprint-generator")
    (tags "capacitor tantalum")
    (path "/00000000-0000-0000-0000-00005bf27ada")
    (attr smd)
    (fp_text reference "C2" (at -2.794 0 180) (layer "F.SilkS")
      (effects (font (size 1 1) (thickness 0.1)))
      (tstamp f022716e-b121-4cbf-a833-20e924070c22)
    )
    (fp_text value "16V10u" (at 0 1.48 90) (layer "F.Fab")
      (effects (font (size 1 1) (thickness 0.15)))
      (tstamp cb868d2e-5efb-4bfb-8796-88435b326918)
    )
    (fp_text user "${REFERENCE}" (at 0 0 90) (layer "F.Fab")
      (effects (font (size 0.4 0.4) (thickness 0.06)))
      (tstamp 04f5865e-f449-4408-a0c8-771cccfcb129)
    )
    (fp_line (start -1.685 -0.785) (end -1.685 0.785) (layer "F.SilkS") (width 0.12) (tstamp 29256b3d-9450-4c0a-a4d4-911f04b9c140))
    (fp_line (start 0.8 -0.785) (end -1.685 -0.785) (layer "F.SilkS") (width 0.12) (tstamp 37e4dc66-4492-4061-908d-7213940a2ec3))
    (fp_line (start -1.685 0.785) (end 0.8 0.785) (layer "F.SilkS") (width 0.12) (tstamp b994142f-02ac-4881-9587-6d3df53c96d2))
    (fp_line (start -1.68 -0.78) (end 1.68 -0.78) (layer "F.CrtYd") (width 0.05) (tstamp 2d6718e7-f18d-444d-9792-ddf1a113460c))
    (fp_line (start 1.68 0.78) (end -1.68 0.78) (layer "F.CrtYd") (width 0.05) (tstamp 71c77456-1405-42e3-95ed-69e629de0558))
    (fp_line (start -1.68 0.78) (end -1.68 -0.78) (layer "F.CrtYd") (width 0.05) (tstamp b603d26a-e034-42fb-8327-b60c5bf9cdd2))
    (fp_line (start 1.68 -0.78) (end 1.68 0.78) (layer "F.CrtYd") (width 0.05) (tstamp f144a97d-c3f0-423f-b0a9-3f7dbc42478b))
    (fp_line (start -0.5 -0.425) (end -0.8 -0.125) (layer "F.Fab") (width 0.1) (tstamp 2bef89de-08c7-4a13-9d85-67948d429ca0))
    (fp_line (start -0.8 0.425) (end 0.8 0.425) (layer "F.Fab") (width 0.1) (tstamp 483f60da-14d7-4f88-8d01-3f9f30784c70))
    (fp_line (start -0.8 -0.125) (end -0.8 0.425) (layer "F.Fab") (width 0.1) (tstamp 6ca3c38c-4e71-4202-b6c1-1b25f04a27ae))
    (fp_line (start 0.8 0.425) (end 0.8 -0.425) (layer "F.Fab") (width 0.1) (tstamp fb03d859-dcc9-4533-b352-64830e0e5423))
    (fp_line (start 0.8 -0.425) (end -0.5 -0.425) (layer "F.Fab") (width 0.1) (tstamp fc0a4225-db46-4d48-8163-d522602d57cd))
    (pad "1" smd roundrect locked (at -0.8 0 90) (size 1.25 1.05) (layers "F.Cu" "F.Paste" "F.Mask") (roundrect_rratio 0.238095)
      (net 3 "Net-(C2-Pad1)") (tstamp 6199bec7-e7eb-4ae0-b9ec-c563e157d635))
    (pad "2" smd roundrect locked (at 0.8 0 90) (size 1.25 1.05) (layers "F.Cu" "F.Paste" "F.Mask") (roundrect_rratio 0.238095)
      (net 2 "GND") (tstamp e47adf3d-9c24-4345-80c9-66679cad107e))
    (model "${KISYS3DMOD}/Capacitor_Tantalum_SMD.3dshapes/CP_EIA-1608-08_AVX-J.wrl"
      (offset (xyz 0 0 0))
      (scale (xyz 1 1 1))
      (rotate (xyz 0 0 0))
    )
  )

  (footprint "Capacitor_SMD:C_0603_1608Metric_Pad1.05x0.95mm_HandSolder" (layer "F.Cu")
    (tedit 5B301BBE) (tstamp 00000000-0000-0000-0000-00005c4b2e73)
    (at 137.555 61.976 180)
    (descr "Capacitor SMD 0603 (1608 Metric), square (rectangular) end terminal, IPC_7351 nominal with elongated pad for handsoldering. (Body size source: http://www.tortai-tech.com/upload/download/2011102023233369053.pdf), generated with kicad-footprint-generator")
    (tags "capacitor handsolder")
    (path "/00000000-0000-0000-0000-00005bf27b32")
    (attr smd)
    (fp_text reference "C1" (at -3.048 0 180) (layer "F.SilkS")
      (effects (font (size 1 1) (thickness 0.15)))
      (tstamp dd2f6b13-9e35-4a67-90ac-cf0d1ea34e5a)
    )
    (fp_text value "0.1u" (at 0 1.43 180) (layer "F.Fab")
      (effects (font (size 1 1) (thickness 0.15)))
      (tstamp 3559e287-424e-4397-b080-77c7ba6f395b)
    )
    (fp_text user "${REFERENCE}" (at 0 0 180) (layer "F.Fab")
      (effects (font (size 0.4 0.4) (thickness 0.06)))
      (tstamp e83e0227-ac0f-4180-82bd-68d3a7b56476)
    )
    (fp_line (start -0.171267 0.51) (end 0.171267 0.51) (layer "F.SilkS") (width 0.12) (tstamp 9ff4672a-e1a4-4a1e-887d-1b9a3429d278))
    (fp_line (start -0.171267 -0.51) (end 0.171267 -0.51) (layer "F.SilkS") (width 0.12) (tstamp edc9ab4f-487a-48dc-95f2-4d87f0e9cf9e))
    (fp_line (start -1.65 0.73) (end -1.65 -0.73) (layer "F.CrtYd") (width 0.05) (tstamp 02165243-61a3-4857-84ba-71a77cb9a387))
    (fp_line (start 1.65 0.73) (end -1.65 0.73) (layer "F.CrtYd") (width 0.05) (tstamp 0f3c9e3a-9c59-4881-b27a-d0e982b3ea8e))
    (fp_line (start -1.65 -0.73) (end 1.65 -0.73) (layer "F.CrtYd") (width 0.05) (tstamp 825c70b0-4860-42b7-97dc-86bfa46e06fd))
    (fp_line (start 1.65 -0.73) (end 1.65 0.73) (layer "F.CrtYd") (width 0.05) (tstamp bbb15673-6d42-42b8-9d51-7515b3ad9ee9))
    (fp_line (start -0.8 -0.4) (end 0.8 -0.4) (layer "F.Fab") (width 0.1) (tstamp 646d9e91-59b4-4865-a2fc-29780ed32563))
    (fp_line (start 0.8 0.4) (end -0.8 0.4) (layer "F.Fab") (width 0.1) (tstamp 87c78429-be2b-40ed-8d3b-56cb9666a56f))
    (fp_line (start 0.8 -0.4) (end 0.8 0.4) (layer "F.Fab") (width 0.1) (tstamp 99030c03-63b4-49ba-b5ab-4d56974f7963))
    (fp_line (start -0.8 0.4) (end -0.8 -0.4) (layer "F.Fab") (width 0.1) (tstamp e6521bef-4109-48f7-8b88-4121b0468927))
    (pad "1" smd roundrect locked (at -0.875 0 180) (size 1.05 0.95) (layers "F.Cu" "F.Paste" "F.Mask") (roundrect_rratio 0.25)
      (net 1 "Net-(C1-Pad1)") (tstamp 46cfd089-6873-4d8b-89af-02ff30e49472))
    (pad "2" smd roundrect locked (at 0.875 0 180) (size 1.05 0.95) (layers "F.Cu" "F.Paste" "F.Mask") (roundrect_rratio 0.25)
      (net 2 "GND") (tstamp bb4f0314-c44c-4dda-b85c-537120eaae9a))
    (model "${KISYS3DMOD}/Capacitor_SMD.3dshapes/C_0603_1608Metric.wrl"
      (offset (xyz 0 0 0))
      (scale (xyz 1 1 1))
      (rotate (xyz 0 0 0))
    )
  )

  (gr_line (start 154.2 56.1) (end 154.2 69.9) (layer "Edge.Cuts") (width 0.15) (tstamp 666713b0-70f4-42df-8761-f65bc212d03b))
  (gr_line (start 154.2 69.9) (end 124.206 69.85) (layer "Edge.Cuts") (width 0.15) (tstamp 6c2e273e-743c-4f1e-a647-4171f8122550))
  (gr_line (start 124.206 56.134) (end 154.2 56.1) (layer "Edge.Cuts") (width 0.15) (tstamp 7dc880bc-e7eb-4cce-8d8c-0b65a9dd788e))
  (gr_line (start 124.206 69.85) (end 124.206 56.134) (layer "Edge.Cuts") (width 0.15) (tstamp e857610b-4434-4144-b04e-43c1ebdc5ceb))
  (gr_text "PL2303SA\n2019/04/21\nAkira Kaneda" (at 139.7 64.262 90) (layer "B.SilkS") (tstamp fe8d9267-7834-48d6-a191-c8724b2ee78d)
    (effects (font (size 1 1) (thickness 0.1)) (justify mirror))
  )
  (gr_text "GND" (at 129.54 67.056) (layer "F.SilkS") (tstamp 00000000-0000-0000-0000-00005cb19862)
    (effects (font (size 1 1) (thickness 0.1)))
  )
  (gr_text "TXD" (at 129.54 61.722) (layer "F.SilkS") (tstamp 8ca3e20d-bcc7-4c5e-9deb-562dfed9fecb)
    (effects (font (size 1 1) (thickness 0.1)))
  )
  (gr_text "RXD" (at 129.54 64.262) (layer "F.SilkS") (tstamp a1823eb2-fb0d-4ed8-8b96-04184ac3a9d5)
    (effects (font (size 1 1) (thickness 0.1)))
  )
  (dimension (type aligned) (layer "F.SilkS") (tstamp 29e78086-2175-405e-9ba3-c48766d2f50c)
    (pts (xy 154.178 56.134) (xy 154.178 69.85))
    (height -2.794)
    (gr_text "13.7160 mm" (at 155.172 62.992 90) (layer "F.SilkS") (tstamp 29e78086-2175-405e-9ba3-c48766d2f50c)
      (effects (font (size 1.5 1.5) (thickness 0.3)))
    )
    (format (units 2) (units_format 1) (precision 4))
    (style (thickness 0.3) (arrow_length 1.27) (text_position_mode 0) (extension_height 0.58642) (extension_offset 0) keep_text_aligned)
  )
  (dimension (type aligned) (layer "F.SilkS") (tstamp aa14c3bd-4acc-4908-9d28-228585a22a9d)
    (pts (xy 154.178 70.104) (xy 124.206 69.85))
    (height -2.031999)
    (gr_text "29.9731 mm" (at 139.190034 70.208991 -0.48554583) (layer "F.SilkS") (tstamp aa14c3bd-4acc-4908-9d28-228585a22a9d)
      (effects (font (size 1.5 1.5) (thickness 0.3)))
    )
    (format (units 2) (units_format 1) (precision 4))
    (style (thickness 0.3) (arrow_length 1.27) (text_position_mode 0) (extension_height 0.58642) (extension_offset 0) keep_text_aligned)
  )

  (segment (start 138.3 59.182) (end 138.43 59.312) (width 0.25) (layer "F.Cu") (net 1) (tstamp 1a1ab354-5f85-45f9-938c-9f6c4c8c3ea2))
  (segment (start 138.43 61.976) (end 138.43 63.625) (width 0.25) (layer "F.Cu") (net 1) (tstamp 1bf544e3-5940-4576-9291-2464e95c0ee2))
  (segment (start 139.055 61.976) (end 138.43 61.976) (width 0.25) (layer "F.Cu") (net 1) (tstamp 3aaee4c4-dbf7-49a5-a620-9465d8cc3ae7))
  (segment (start 137.2 59.182) (end 138.3 59.182) (width 0.25) (layer "F.Cu") (net 1) (tstamp 42713045-fffd-4b2d-ae1e-7232d705fb12))
  (segment (start 138.43 59.312) (end 138.43 61.401) (width 0.25) (layer "F.Cu") (net 1) (tstamp 7aed3a71-054b-4aaa-9c0a-030523c32827))
  (segment (start 138.43 61.401) (end 138.43 61.976) (width 0.25) (layer "F.Cu") (net 1) (tstamp 9157f4ae-0244-4ff1-9f73-3cb4cbb5f280))
  (segment (start 143.905 63.3) (end 143.28 63.3) (width 0.25) (layer "F.Cu") (net 1) (tstamp 922058ca-d09a-45fd-8394-05f3e2c1e03a))
  (segment (start 143.28 63.3) (end 141.956 61.976) (width 0.25) (layer "F.Cu") (net 1) (tstamp 97fe9c60-586f-4895-8504-4d3729f5f81a))
  (segment (start 141.956 61.976) (end 139.055 61.976) (width 0.25) (layer "F.Cu") (net 1) (tstamp bdc7face-9f7c-4701-80bb-4cc144448db1))
  (segment (start 138.43 63.625) (end 138.6 63.795) (width 0.25) (layer "F.Cu") (net 1) (tstamp c0515cd2-cdaa-467e-8354-0f6eadfa35c9))
  (via (at 146.558 60.198) (size 0.8) (drill 0.4) (layers "F.Cu" "B.Cu") (net 2) (tstamp 003c2200-0632-4808-a662-8ddd5d30c768))
  (via (at 144.272 60.198) (size 0.8) (drill 0.4) (layers "F.Cu" "B.Cu") (net 2) (tstamp 08a7c925-7fae-4530-b0c9-120e185cb318))
  (via (at 136.398 63.754) (size 0.8) (drill 0.4) (layers "F.Cu" "B.Cu") (net 2) (tstamp 0f54db53-a272-4955-88fb-d7ab00657bb0))
  (via (at 146.558 57.912) (size 0.8) (drill 0.4) (layers "F.Cu" "B.Cu") (net 2) (tstamp 240e07e1-770b-4b27-894f-29fd601c924d))
  (via (at 131.318 57.912) (size 0.8) (drill 0.4) (layers "F.Cu" "B.Cu") (net 2) (tstamp 2d6db888-4e40-41c8-b701-07170fc894bc))
  (via (at 129.032 57.912) (size 0.8) (drill 0.4) (layers "F.Cu" "B.Cu") (net 2) (tstamp 31e08896-1992-4725-96d9-9d2728bca7a3))
  (via (at 140.462 57.912) (size 0.8) (drill 0.4) (layers "F.Cu" "B.Cu") (net 2) (tstamp 4a4ec8d9-3d72-4952-83d4-808f65849a2b))
  (via (at 129.032 60.198) (size 0.8) (drill 0.4) (layers "F.Cu" "B.Cu") (net 2) (tstamp 5528bcad-2950-4673-90eb-c37e6952c475))
  (via (at 140.462 60.198) (size 0.8) (drill 0.4) (layers "F.Cu" "B.Cu") (net 2) (tstamp 6441b183-b8f2-458f-a23d-60e2b1f66dd6))
  (via (at 142.494 60.198) (size 0.8) (drill 0.4) (layers "F.Cu" "B.Cu") (net 2) (tstamp 66043bca-a260-4915-9fce-8a51d324c687))
  (via (at 142.494 64.008) (size 0.8) (drill 0.4) (layers "F.Cu" "B.Cu") (net 2) (tstamp 7bbf981c-a063-4e30-8911-e4228e1c0743))
  (via (at 129.032 61.722) (size 0.8) (drill 0.4) (layers "F.Cu" "B.Cu") (net 2) (tstamp 7edc9030-db7b-43ac-a1b3-b87eeacb4c2d))
  (via (at 136.398 65.024) (size 0.8) (drill 0.4) (layers "F.Cu" "B.Cu") (net 2) (tstamp 80094b70-85ab-4ff6-934b-60d5ee65023a))
  (via (at 131.318 61.722) (size 0.8) (drill 0.4) (layers "F.Cu" "B.Cu") (net 2) (tstamp 852dabbf-de45-4470-8176-59d37a754407))
  (via (at 131.318 60.198) (size 0.8) (drill 0.4) (layers "F.Cu" "B.Cu") (net 2) (tstamp b5352a33-563a-4ffe-a231-2e68fb54afa3))
  (via (at 136.398 67.564) (size 0.8) (drill 0.4) (layers "F.Cu" "B.Cu") (net 2) (tstamp bfc0aadc-38cf-466e-a642-68fdc3138c78))
  (via (at 142.494 57.912) (size 0.8) (drill 0.4) (layers "F.Cu" "B.Cu") (net 2) (tstamp cbd8faed-e1f8-4406-87c8-58b2c504a5d4))
  (via (at 136.398 66.294) (size 0.8) (drill 0.4) (layers "F.Cu" "B.Cu") (net 2) (tstamp d4a1d3c4-b315-4bec-9220-d12a9eab51e0))
  (via (at 144.272 57.912) (size 0.8) (drill 0.4) (layers "F.Cu" "B.Cu") (net 2) (tstamp f2c93195-af12-4d3e-acdf-bdd0ff675c24))
  (segment (start 148.625 64.6) (end 147.6247 64.6) (width 0.25) (layer "F.Cu") (net 3) (tstamp 63ff1c93-3f96-4c33-b498-5dd8c33bccc0))
  (segment (start 147.1627 65.062) (end 147.6247 64.6) (width 0.25) (layer "F.Cu") (net 3) (tstamp 9b0a1687-7e1b-4a04-a30b-c27a072a2949))
  (segment (start 140.967 65.065) (end 140.97 65.062) (width 0.25) (layer "F.Cu") (net 3) (tstamp 9e1b837f-0d34-4a18-9644-9ee68f141f46))
  (segment (start 138.6 65.065) (end 140.967 65.065) (width 0.25) (layer "F.Cu") (net 3) (tstamp c01d25cd-f4bb-4ef3-b5ea-533a2a4ddb2b))
  (segment (start 140.97 65.062) (end 147.1627 65.062) (width 0.25) (layer "F.Cu") (net 3) (tstamp ee27d19c-8dca-4ac8-a760-6dfd54d28071))
  (segment (start 133.2 65.065) (end 129.581 65.065) (width 0.25) (layer "F.Cu") (net 4) (tstamp 2f215f15-3d52-4c91-93e6-3ea03a95622f))
  (segment (start 129.581 65.065) (end 126.238 61.722) (width 0.25) (layer "F.Cu") (net 4) (tstamp 61fe293f-6808-4b7f-9340-9aaac7054a97))
  (segment (start 126.238 62.266) (end 126.238 61.976) (width 0.25) (layer "F.Cu") (net 4) (tstamp b88717bd-086f-46cd-9d3f-0396009d0996))
  (segment (start 129.581 67.605) (end 126.238 64.262) (width 0.25) (layer "F.Cu") (net 5) (tstamp 8da933a9-35f8-42e6-8504-d1bab7264306))
  (segment (start 133.2 67.605) (end 129.581 67.605) (width 0.25) (layer "F.Cu") (net 5) (tstamp bd5408e4-362d-4e43-9d39-78fb99eb52c8))
  (segment (start 134.66 60.384081) (end 134.66 59.182) (width 0.25) (layer "F.Cu") (net 6) (tstamp 0217dfc4-fc13-4699-99ad-d9948522648e))
  (segment (start 133.2 66.335) (end 134.225 66.335) (width 0.25) (layer "F.Cu") (net 6) (tstamp 1d9cdadc-9036-4a95-b6db-fa7b3b74c869))
  (segment (start 134.225 66.335) (end 134.66 65.9) (width 0.25) (layer "F.Cu") (net 6) (tstamp 6bfe5804-2ef9-4c65-b2a7-f01e4014370a))
  (segment (start 134.66 65.9) (end 134.66 60.384081) (width 0.25) (layer "F.Cu") (net 6) (tstamp c0eca5ed-bc5e-4618-9bcd-80945bea41ed))
  (segment (start 147.012 63.3) (end 145.655 63.3) (width 0.25) (layer "F.Cu") (net 7) (tstamp 00000000-0000-0000-0000-00005cb1981b))
  (segment (start 146.984 67.9) (end 146.984 67.9) (width 0.25) (layer "F.Cu") (net 7) (tstamp 00000000-0000-0000-0000-00005cb19831))
  (segment (start 148.625 63.3) (end 147.012 63.3) (width 0.25) (layer "F.Cu") (net 7) (tstamp 3a7648d8-121a-4921-9b92-9b35b76ce39b))
  (segment (start 145.275 67.9) (end 146.984 67.9) (width 0.25) (layer "F.Cu") (net 7) (tstamp 6475547d-3216-45a4-a15c-48314f1dd0f9))
  (via (at 147.012 63.3) (size 0.8) (drill 0.4) (layers "F.Cu" "B.Cu") (net 7) (tstamp 75ffc65c-7132-4411-9f2a-ae0c73d79338))
  (via (at 146.984 67.9) (size 0.8) (drill 0.4) (layers "F.Cu" "B.Cu") (net 7) (tstamp a544eb0a-75db-4baf-bf54-9ca21744343b))
  (segment (start 147.012 67.872) (end 146.984 67.9) (width 0.25) (layer "B.Cu") (net 7) (tstamp 1a6d2848-e78e-49fe-8978-e1890f07836f))
  (segment (start 147.012 63.3) (end 147.012 67.872) (width 0.25) (layer "B.Cu") (net 7) (tstamp 7d34f6b1-ab31-49be-b011-c67fe67a8a56))
  (segment (start 145.9 66.3) (end 145.275 66.3) (width 0.25) (layer "F.Cu") (net 9) (tstamp 12422a89-3d0c-485c-9386-f77121fd68fd))
  (segment (start 149.625001 65.060001) (end 148.385002 66.3) (width 0.25) (layer "F.Cu") (net 9) (tstamp 40165eda-4ba6-4565-9bb4-b9df6dbb08da))
  (segment (start 149.55 63.95) (end 149.625001 64.025001) (width 0.25) (layer "F.Cu") (net 9) (tstamp 4780a290-d25c-4459-9579-eba3f7678762))
  (segment (start 149.625001 64.025001) (end 149.625001 65.060001) (width 0.25) (layer "F.Cu") (net 9) (tstamp 7e023245-2c2b-4e2b-bfb9-5d35176e88f2))
  (segment (start 148.385002 66.3) (end 145.9 66.3) (width 0.25) (layer "F.Cu") (net 9) (tstamp 8e06ba1f-e3ba-4eb9-a10e-887dffd566d6))
  (segment (start 148.625 63.95) (end 149.55 63.95) (width 0.25) (layer "F.Cu") (net 9) (tstamp df68c26a-03b5-4466-aecf-ba34b7dce6b7))
  (segment (start 143.542 67.97) (end 143.577 67.935) (width 0.25) (layer "F.Cu") (net 10) (tstamp 25d545dc-8f50-4573-922c-35ef5a2a3a19))
  (segment (start 143.56 67.935) (end 143.525 67.9) (width 0.25) (layer "F.Cu") (net 10) (tstamp aca4de92-9c41-4c2b-9afa-540d02dafa1c))
  (segment (start 143.525 67.9) (end 139.9953 67.9) (width 0.25) (layer "F.Cu") (net 10) (tstamp babeabf2-f3b0-4ed5-8d9e-0215947e6cf3))
  (segment (start 138.6 67.605) (end 139.7003 67.605) (width 0.25) (layer "F.Cu") (net 10) (tstamp c43663ee-9a0d-4f27-a292-89ba89964065))
  (segment (start 143.577 67.935) (end 143.612 67.9) (width 0.25) (layer "F.Cu") (net 10) (tstamp c830e3bc-dc64-4f65-8f47-3b106bae2807))
  (segment (start 143.577 67.935) (end 143.56 67.935) (width 0.25) (layer "F.Cu") (net 10) (tstamp d7269d2a-b8c0-422d-8f25-f79ea31bf75e))
  (segment (start 139.9953 67.9) (end 139.7003 67.605) (width 0.25) (layer "F.Cu") (net 10) (tstamp e8c50f1b-c316-4110-9cce-5c24c65a1eaa))
  (segment (start 138.6 66.335) (end 143.49 66.335) (width 0.25) (layer "F.Cu") (net 11) (tstamp 1e8701fc-ad24-40ea-846a-e3db538d6077))
  (segment (start 143.49 66.335) (end 143.525 66.3) (width 0.25) (layer "F.Cu") (net 11) (tstamp d5641ac9-9be7-46bf-90b3-6c83d852b5ba))

  (zone (net 2) (net_name "GND") (layer "F.Cu") (tstamp 40976bf0-19de-460f-ad64-224d4f51e16b) (hatch edge 0.508)
    (connect_pads (clearance 0.508))
    (min_thickness 0.254)
    (fill yes (thermal_gap 0.508) (thermal_bridge_width 0.508))
    (polygon
      (pts
        (xy 124.206 56.134)
        (xy 124.206 69.85)
        (xy 154.178 69.85)
        (xy 154.178 56.134)
      )
    )
    (filled_polygon
      (layer "F.Cu")
      (pts
        (xy 153.490001 69.188816)
        (xy 124.916 69.141183)
        (xy 124.916 67.463192)
        (xy 124.966359 67.56892)
        (xy 125.140412 67.802269)
        (xy 125.356645 67.997178)
        (xy 125.606748 68.146157)
        (xy 125.881109 68.243481)
        (xy 126.111 68.122814)
        (xy 126.111 66.929)
        (xy 126.091 66.929)
        (xy 126.091 66.675)
        (xy 126.111 66.675)
        (xy 126.111 66.655)
        (xy 126.365 66.655)
        (xy 126.365 66.675)
        (xy 126.385 66.675)
        (xy 126.385 66.929)
        (xy 126.365 66.929)
        (xy 126.365 68.122814)
        (xy 126.594891 68.243481)
        (xy 126.869252 68.146157)
        (xy 127.119355 67.997178)
        (xy 127.335588 67.802269)
        (xy 127.509641 67.56892)
        (xy 127.634825 67.306099)
        (xy 127.679476 67.15889)
        (xy 127.558156 66.929002)
        (xy 127.723 66.929002)
        (xy 127.723 66.821801)
        (xy 129.0172 68.116002)
        (xy 129.040999 68.145001)
        (xy 129.069997 68.168799)
        (xy 129.156723 68.239974)
        (xy 129.198391 68.262246)
        (xy 129.288753 68.310546)
        (xy 129.432014 68.354003)
        (xy 129.543667 68.365)
        (xy 129.543677 68.365)
        (xy 129.581 68.368676)
        (xy 129.618323 68.365)
        (xy 131.984556 68.365)
        (xy 132.070506 68.435537)
        (xy 132.18082 68.494502)
        (xy 132.300518 68.530812)
        (xy 132.425 68.543072)
        (xy 133.975 68.543072)
        (xy 134.099482 68.530812)
        (xy 134.21918 68.494502)
        (xy 134.329494 68.435537)
        (xy 134.426185 68.356185)
        (xy 134.505537 68.259494)
        (xy 134.564502 68.14918)
        (xy 134.600812 68.029482)
        (xy 134.613072 67.905)
        (xy 134.613072 67.305)
        (xy 134.600812 67.180518)
        (xy 134.564502 67.06082)
        (xy 134.545572 67.025406)
        (xy 134.649276 66.969974)
        (xy 134.765001 66.875001)
        (xy 134.788804 66.845997)
        (xy 135.170998 66.463803)
        (xy 135.200001 66.440001)
        (xy 135.260031 66.366854)
        (xy 135.294974 66.324277)
        (xy 135.365546 66.192247)
        (xy 135.378053 66.151015)
        (xy 135.409003 66.048986)
        (xy 135.42 65.937333)
        (xy 135.42 65.937323)
        (xy 135.423676 65.9)
        (xy 135.42 65.862677)
        (xy 135.42 62.451)
        (xy 135.516928 62.451)
        (xy 135.529188 62.575482)
        (xy 135.565498 62.69518)
        (xy 135.624463 62.805494)
        (xy 135.703815 62.902185)
        (xy 135.800506 62.981537)
        (xy 135.91082 63.040502)
        (xy 136.030518 63.076812)
        (xy 136.155 63.089072)
        (xy 136.39425 63.086)
        (xy 136.553 62.92725)
        (xy 136.553 62.103)
        (xy 135.67875 62.103)
        (xy 135.52 62.26175)
        (xy 135.516928 62.451)
        (xy 135.42 62.451)
        (xy 135.42 61.501)
        (xy 135.516928 61.501)
        (xy 135.52 61.69025)
        (xy 135.67875 61.849)
        (xy 136.553 61.849)
        (xy 136.553 61.02475)
        (xy 136.39425 60.866)
        (xy 136.155 60.862928)
        (xy 136.030518 60.875188)
        (xy 135.91082 60.911498)
        (xy 135.800506 60.970463)
        (xy 135.703815 61.049815)
        (xy 135.624463 61.146506)
        (xy 135.565498 61.25682)
        (xy 135.529188 61.376518)
        (xy 135.516928 61.501)
        (xy 135.42 61.501)
        (xy 135.42 60.459595)
        (xy 135.489014 60.422706)
        (xy 135.715134 60.237134)
        (xy 135.739607 60.207313)
        (xy 135.760498 60.27618)
        (xy 135.819463 60.386494)
        (xy 135.898815 60.483185)
        (xy 135.995506 60.562537)
        (xy 136.10582 60.621502)
        (xy 136.225518 60.657812)
        (xy 136.35 60.670072)
        (xy 137.670001 60.670072)
        (xy 137.670001 61.003035)
        (xy 137.656058 61.010488)
        (xy 137.632161 61.030099)
        (xy 137.559494 60.970463)
        (xy 137.44918 60.911498)
        (xy 137.329482 60.875188)
        (xy 137.205 60.862928)
        (xy 136.96575 60.866)
        (xy 136.807 61.02475)
        (xy 136.807 61.849)
        (xy 136.827 61.849)
        (xy 136.827 62.103)
        (xy 136.807 62.103)
        (xy 136.807 62.92725)
        (xy 136.96575 63.086)
        (xy 137.205 63.089072)
        (xy 137.329482 63.076812)
        (xy 137.352454 63.069844)
        (xy 137.294463 63.140506)
        (xy 137.235498 63.25082)
        (xy 137.199188 63.370518)
        (xy 137.186928 63.495)
        (xy 137.186928 64.095)
        (xy 137.199188 64.219482)
        (xy 137.235498 64.33918)
        (xy 137.284043 64.43)
        (xy 137.235498 64.52082)
        (xy 137.199188 64.640518)
        (xy 137.186928 64.765)
        (xy 137.186928 65.365)
        (xy 137.199188 65.489482)
        (xy 137.235498 65.60918)
        (xy 137.284043 65.7)
        (xy 137.235498 65.79082)
        (xy 137.199188 65.910518)
        (xy 137.186928 66.035)
        (xy 137.186928 66.635)
        (xy 137.199188 66.759482)
        (xy 137.235498 66.87918)
        (xy 137.284043 66.97)
        (xy 137.235498 67.06082)
        (xy 137.199188 67.180518)
        (xy 137.186928 67.305)
        (xy 137.186928 67.905)
        (xy 137.199188 68.029482)
        (xy 137.235498 68.14918)
        (xy 137.294463 68.259494)
        (xy 137.373815 68.356185)
        (xy 137.470506 68.435537)
        (xy 137.58082 68.494502)
        (xy 137.700518 68.530812)
        (xy 137.825 68.543072)
        (xy 139.375 68.543072)
        (xy 139.499482 68.530812)
        (xy 139.548014 68.51609)
        (xy 139.571024 68.534974)
        (xy 139.703053 68.605546)
        (xy 139.846314 68.649003)
        (xy 139.957967 68.66)
        (xy 139.957977 68.66)
        (xy 139.995299 68.663676)
        (xy 140.032622 68.66)
        (xy 142.53908 68.66)
        (xy 142.618377 68.756623)
        (xy 142.751058 68.865512)
        (xy 142.902433 68.946423)
        (xy 143.066684 68.996248)
        (xy 143.2375 69.013072)
        (xy 143.8125 69.013072)
        (xy 143.983316 68.996248)
        (xy 144.147567 68.946423)
        (xy 144.298942 68.865512)
        (xy 144.4 68.782575)
        (xy 144.501058 68.865512)
        (xy 144.652433 68.946423)
        (xy 144.816684 68.996248)
        (xy 144.9875 69.013072)
        (xy 145.5625 69.013072)
        (xy 145.733316 68.996248)
        (xy 145.897567 68.946423)
        (xy 146.048942 68.865512)
        (xy 146.181623 68.756623)
        (xy 146.26092 68.66)
        (xy 146.280289 68.66)
        (xy 146.324226 68.703937)
        (xy 146.493744 68.817205)
        (xy 146.682102 68.895226)
        (xy 146.882061 68.935)
        (xy 147.085939 68.935)
        (xy 147.285898 68.895226)
        (xy 147.474256 68.817205)
        (xy 147.643774 68.703937)
        (xy 147.787937 68.559774)
        (xy 147.901205 68.390256)
        (xy 147.979226 68.201898)
        (xy 148.019 68.001939)
        (xy 148.019 67.798061)
        (xy 147.979226 67.598102)
        (xy 147.901205 67.409744)
        (xy 147.787937 67.240226)
        (xy 147.643774 67.096063)
        (xy 147.589802 67.06)
        (xy 148.34768 67.06)
        (xy 148.385002 67.063676)
        (xy 148.422324 67.06)
        (xy 148.422335 67.06)
        (xy 148.533988 67.049003)
        (xy 148.677249 67.005546)
        (xy 148.809278 66.934974)
        (xy 148.912819 66.85)
        (xy 149.859751 66.85)
        (xy 149.8807 67.062697)
        (xy 149.942741 67.26722)
        (xy 150.043491 67.45571)
        (xy 150.179078 67.620922)
        (xy 150.34429 67.756509)
        (xy 150.53278 67.857259)
        (xy 150.737303 67.9193)
        (xy 150.896706 67.935)
        (xy 151.703294 67.935)
        (xy 151.862697 67.9193)
        (xy 152.06722 67.857259)
        (xy 152.25571 67.756509)
        (xy 152.420922 67.620922)
        (xy 152.556509 67.45571)
        (xy 152.657259 67.26722)
        (xy 152.7193 67.062697)
        (xy 152.740249 66.85)
        (xy 152.7193 66.637303)
        (xy 152.657259 66.43278)
        (xy 152.556509 66.24429)
        (xy 152.420922 66.079078)
        (xy 152.25571 65.943491)
        (xy 152.06722 65.842741)
        (xy 151.862697 65.7807)
        (xy 151.703294 65.765)
        (xy 150.896706 65.765)
        (xy 150.737303 65.7807)
        (xy 150.53278 65.842741)
        (xy 150.34429 65.943491)
        (xy 150.179078 66.079078)
        (xy 150.043491 66.24429)
        (xy 149.942741 66.43278)
        (xy 149.8807 66.637303)
        (xy 149.859751 66.85)
        (xy 148.912819 66.85)
        (xy 148.925003 66.840001)
        (xy 148.948805 66.810998)
        (xy 150.136009 65.623796)
        (xy 150.165002 65.600002)
        (xy 150.188796 65.571009)
        (xy 150.1888 65.571005)
        (xy 150.259974 65.484278)
        (xy 150.261627 65.481186)
        (xy 150.330547 65.352248)
        (xy 150.374004 65.208987)
        (xy 150.385001 65.097334)
        (xy 150.385001 65.097325)
        (xy 150.388677 65.060002)
        (xy 150.385001 65.022679)
        (xy 150.385001 64.062323)
        (xy 150.388677 64.025)
        (xy 150.385001 63.987678)
        (xy 150.385001 63.987668)
        (xy 150.374004 63.876015)
        (xy 150.330547 63.732754)
        (xy 150.259975 63.600725)
        (xy 150.165002 63.485)
        (xy 150.136003 63.461201)
        (xy 150.113802 63.439)
        (xy 150.090001 63.409999)
        (xy 149.974276 63.315026)
        (xy 149.938072 63.295674)
        (xy 149.938072 63.1)
        (xy 149.925812 62.975518)
        (xy 149.925655 62.975)
        (xy 149.925812 62.974482)
        (xy 149.938072 62.85)
        (xy 149.938072 62.45)
        (xy 149.925812 62.325518)
        (xy 149.925012 62.32288)
        (xy 149.935 62.23175)
        (xy 149.867032 62.163782)
        (xy 149.830537 62.095506)
        (xy 149.751185 61.998815)
        (xy 149.663678 61.927)
        (xy 149.77625 61.927)
        (xy 149.935 61.76825)
        (xy 149.923741 61.665526)
        (xy 149.885521 61.546424)
        (xy 149.8248 61.437067)
        (xy 149.743912 61.341657)
        (xy 149.645964 61.263861)
        (xy 149.534721 61.206669)
        (xy 149.414457 61.172278)
        (xy 149.289795 61.16201)
        (xy 148.91075 61.165)
        (xy 148.752 61.32375)
        (xy 148.752 61.811928)
        (xy 148.498 61.811928)
        (xy 148.498 61.32375)
        (xy 148.33925 61.165)
        (xy 147.960205 61.16201)
        (xy 147.835543 61.172278)
        (xy 147.715279 61.206669)
        (xy 147.604036 61.263861)
        (xy 147.506088 61.341657)
        (xy 147.4252 61.437067)
        (xy 147.364479 61.546424)
        (xy 147.326259 61.665526)
        (xy 147.315 61.76825)
        (xy 147.47375 61.927)
        (xy 147.586322 61.927)
        (xy 147.498815 61.998815)
        (xy 147.419463 62.095506)
        (xy 147.382968 62.163782)
        (xy 147.315 62.23175)
        (xy 147.323437 62.308725)
        (xy 147.313898 62.304774)
        (xy 147.113939 62.265)
        (xy 146.910061 62.265)
        (xy 146.710102 62.304774)
        (xy 146.521744 62.382795)
        (xy 146.503036 62.395295)
        (xy 146.428942 62.334488)
        (xy 146.277567 62.253577)
        (xy 146.113316 62.203752)
        (xy 145.9425 62.186928)
        (xy 145.3675 62.186928)
        (xy 145.196684 62.203752)
        (xy 145.032433 62.253577)
        (xy 144.881058 62.334488)
        (xy 144.78 62.417425)
        (xy 144.678942 62.334488)
        (xy 144.527567 62.253577)
        (xy 144.363316 62.203752)
        (xy 144.1925 62.186928)
        (xy 143.6175 62.186928)
        (xy 143.446684 62.203752)
        (xy 143.30234 62.247538)
        (xy 142.519804 61.465003)
        (xy 142.496001 61.435999)
        (xy 142.380276 61.341026)
        (xy 142.248247 61.270454)
        (xy 142.104986 61.226997)
        (xy 141.993333 61.216)
        (xy 141.993322 61.216)
        (xy 141.956 61.212324)
        (xy 141.918678 61.216)
        (xy 139.41592 61.216)
        (xy 139.336623 61.119377)
        (xy 139.203942 61.010488)
        (xy 139.19 61.003036)
        (xy 139.19 59.75)
        (xy 149.859751 59.75)
        (xy 149.8807 59.962697)
        (xy 149.942741 60.16722)
        (xy 150.043491 60.35571)
        (xy 150.179078 60.520922)
        (xy 150.34429 60.656509)
        (xy 150.53278 60.757259)
        (xy 150.737303 60.8193)
        (xy 150.896706 60.835)
        (xy 151.703294 60.835)
        (xy 151.862697 60.8193)
        (xy 152.06722 60.757259)
        (xy 152.25571 60.656509)
        (xy 152.420922 60.520922)
        (xy 152.556509 60.35571)
        (xy 152.657259 60.16722)
        (xy 152.7193 59.962697)
        (xy 152.740249 59.75)
        (xy 152.7193 59.537303)
        (xy 152.657259 59.33278)
        (xy 152.556509 59.14429)
        (xy 152.420922 58.979078)
        (xy 152.25571 58.843491)
        (xy 152.06722 58.742741)
        (xy 151.862697 58.6807)
        (xy 151.703294 58.665)
        (xy 150.896706 58.665)
        (xy 150.737303 58.6807)
        (xy 150.53278 58.742741)
        (xy 150.34429 58.843491)
        (xy 150.179078 58.979078)
        (xy 150.043491 59.14429)
        (xy 149.942741 59.33278)
        (xy 149.8807 59.537303)
        (xy 149.859751 59.75)
        (xy 139.19 59.75)
        (xy 139.19 59.349325)
        (xy 139.193676 59.312)
        (xy 139.19 59.274675)
        (xy 139.19 59.274667)
        (xy 139.179003 59.163014)
        (xy 139.135546 59.019753)
        (xy 139.064974 58.887724)
        (xy 138.970001 58.771999)
        (xy 138.940998 58.748197)
        (xy 138.863804 58.671003)
        (xy 138.840001 58.641999)
        (xy 138.724276 58.547026)
        (xy 138.688072 58.527674)
        (xy 138.688072 58.332)
        (xy 138.675812 58.207518)
        (xy 138.639502 58.08782)
        (xy 138.580537 57.977506)
        (xy 138.501185 57.880815)
        (xy 138.404494 57.801463)
        (xy 138.29418 57.742498)
        (xy 138.174482 57.706188)
        (xy 138.05 57.693928)
        (xy 136.35 57.693928)
        (xy 136.225518 57.706188)
        (xy 136.10582 57.742498)
        (xy 135.995506 57.801463)
        (xy 135.898815 57.880815)
        (xy 135.819463 57.977506)
        (xy 135.760498 58.08782)
        (xy 135.739607 58.156687)
        (xy 135.715134 58.126866)
        (xy 135.489014 57.941294)
        (xy 135.231034 57.803401)
        (xy 134.951111 57.718487)
        (xy 134.73295 57.697)
        (xy 134.58705 57.697)
        (xy 134.368889 57.718487)
        (xy 134.088966 57.803401)
        (xy 133.830986 57.941294)
        (xy 133.604866 58.126866)
        (xy 133.419294 58.352986)
        (xy 133.281401 58.610966)
        (xy 133.196487 58.890889)
        (xy 133.167815 59.182)
        (xy 133.196487 59.473111)
        (xy 133.281401 59.753034)
        (xy 133.419294 60.011014)
        (xy 133.604866 60.237134)
        (xy 133.830986 60.422706)
        (xy 133.900001 60.459595)
        (xy 133.900001 62.857399)
        (xy 133.48575 62.86)
        (xy 133.327 63.01875)
        (xy 133.327 63.668)
        (xy 133.347 63.668)
        (xy 133.347 63.922)
        (xy 133.327 63.922)
        (xy 133.327 63.942)
        (xy 133.073 63.942)
        (xy 133.073 63.922)
        (xy 131.94875 63.922)
        (xy 131.79 64.08075)
        (xy 131.786928 64.095)
        (xy 131.799188 64.219482)
        (xy 131.82513 64.305)
        (xy 129.895802 64.305)
        (xy 129.085802 63.495)
        (xy 131.786928 63.495)
        (xy 131.79 63.50925)
        (xy 131.94875 63.668)
        (xy 133.073 63.668)
        (xy 133.073 63.01875)
        (xy 132.91425 62.86)
        (xy 132.425 62.856928)
        (xy 132.300518 62.869188)
        (xy 132.18082 62.905498)
        (xy 132.070506 62.964463)
        (xy 131.973815 63.043815)
        (xy 131.894463 63.140506)
        (xy 131.835498 63.25082)
        (xy 131.799188 63.370518)
        (xy 131.786928 63.495)
        (xy 129.085802 63.495)
        (xy 127.726072 62.135271)
        (xy 127.726072 60.872)
        (xy 127.713812 60.747518)
        (xy 127.677502 60.62782)
        (xy 127.618537 60.517506)
        (xy 127.539185 60.420815)
        (xy 127.442494 60.341463)
        (xy 127.33218 60.282498)
        (xy 127.212482 60.246188)
        (xy 127.088 60.233928)
        (xy 125.388 60.233928)
        (xy 125.263518 60.246188)
        (xy 125.14382 60.282498)
        (xy 125.033506 60.341463)
        (xy 124.936815 60.420815)
        (xy 124.916 60.446178)
        (xy 124.916 56.843196)
        (xy 153.49 56.810805)
      )
    )
    (filled_polygon
      (layer "F.Cu")
      (pts
        (xy 142.716201 63.811003)
        (xy 142.739999 63.840001)
        (xy 142.831158 63.914813)
        (xy 142.889488 64.023942)
        (xy 142.998377 64.156623)
        (xy 143.131058 64.265512)
        (xy 143.199323 64.302)
        (xy 142.093354 64.302)
        (xy 142.120812 64.211482)
        (xy 142.133072 64.087)
        (xy 142.13 63.74775)
        (xy 141.97125 63.589)
        (xy 141.097 63.589)
        (xy 141.097 63.609)
        (xy 140.843 63.609)
        (xy 140.843 63.589)
        (xy 140.823 63.589)
        (xy 140.823 63.335)
        (xy 140.843 63.335)
        (xy 140.843 63.315)
        (xy 141.097 63.315)
        (xy 141.097 63.335)
        (xy 141.97125 63.335)
        (xy 142.105724 63.200526)
      )
    )
  )
  (zone (net 2) (net_name "GND") (layer "B.Cu") (tstamp a15a7506-eae4-4933-84da-9ad754258706) (hatch edge 0.508)
    (connect_pads (clearance 0.508))
    (min_thickness 0.254)
    (fill yes (thermal_gap 0.508) (thermal_bridge_width 0.508))
    (polygon
      (pts
        (xy 124.206 56.134)
        (xy 124.206 69.85)
        (xy 154.178 69.85)
        (xy 154.178 56.134)
      )
    )
    (filled_polygon
      (layer "B.Cu")
      (pts
        (xy 153.490001 69.188816)
        (xy 124.916 69.141183)
        (xy 124.916 67.463192)
        (xy 124.966359 67.56892)
        (xy 125.140412 67.802269)
        (xy 125.356645 67.997178)
        (xy 125.606748 68.146157)
        (xy 125.881109 68.243481)
        (xy 126.111 68.122814)
        (xy 126.111 66.929)
        (xy 126.365 66.929)
        (xy 126.365 68.122814)
        (xy 126.594891 68.243481)
        (xy 126.869252 68.146157)
        (xy 127.119355 67.997178)
        (xy 127.335588 67.802269)
        (xy 127.338726 67.798061)
        (xy 145.949 67.798061)
        (xy 145.949 68.001939)
        (xy 145.988774 68.201898)
        (xy 146.066795 68.390256)
        (xy 146.180063 68.559774)
        (xy 146.324226 68.703937)
        (xy 146.493744 68.817205)
        (xy 146.682102 68.895226)
        (xy 146.882061 68.935)
        (xy 147.085939 68.935)
        (xy 147.285898 68.895226)
        (xy 147.474256 68.817205)
        (xy 147.643774 68.703937)
        (xy 147.787937 68.559774)
        (xy 147.901205 68.390256)
        (xy 147.979226 68.201898)
        (xy 148.019 68.001939)
        (xy 148.019 67.798061)
        (xy 147.979226 67.598102)
        (xy 147.901205 67.409744)
        (xy 147.787937 67.240226)
        (xy 147.772 67.224289)
        (xy 147.772 66.85)
        (xy 149.859751 66.85)
        (xy 149.8807 67.062697)
        (xy 149.942741 67.26722)
        (xy 150.043491 67.45571)
        (xy 150.179078 67.620922)
        (xy 150.34429 67.756509)
        (xy 150.53278 67.857259)
        (xy 150.737303 67.9193)
        (xy 150.896706 67.935)
        (xy 151.703294 67.935)
        (xy 151.862697 67.9193)
        (xy 152.06722 67.857259)
        (xy 152.25571 67.756509)
        (xy 152.420922 67.620922)
        (xy 152.556509 67.45571)
        (xy 152.657259 67.26722)
        (xy 152.7193 67.062697)
        (xy 152.740249 66.85)
        (xy 152.7193 66.637303)
        (xy 152.657259 66.43278)
        (xy 152.556509 66.24429)
        (xy 152.420922 66.079078)
        (xy 152.25571 65.943491)
        (xy 152.06722 65.842741)
        (xy 151.862697 65.7807)
        (xy 151.703294 65.765)
        (xy 150.896706 65.765)
        (xy 150.737303 65.7807)
        (xy 150.53278 65.842741)
        (xy 150.34429 65.943491)
        (xy 150.179078 66.079078)
        (xy 150.043491 66.24429)
        (xy 149.942741 66.43278)
        (xy 149.8807 66.637303)
        (xy 149.859751 66.85)
        (xy 147.772 66.85)
        (xy 147.772 64.003711)
        (xy 147.815937 63.959774)
        (xy 147.929205 63.790256)
        (xy 148.007226 63.601898)
        (xy 148.047 63.401939)
        (xy 148.047 63.198061)
        (xy 148.007226 62.998102)
        (xy 147.929205 62.809744)
        (xy 147.815937 62.640226)
        (xy 147.671774 62.496063)
        (xy 147.502256 62.382795)
        (xy 147.313898 62.304774)
        (xy 147.113939 62.265)
        (xy 146.910061 62.265)
        (xy 146.710102 62.304774)
        (xy 146.521744 62.382795)
        (xy 146.352226 62.496063)
        (xy 146.208063 62.640226)
        (xy 146.094795 62.809744)
        (xy 146.016774 62.998102)
        (xy 145.977 63.198061)
        (xy 145.977 63.401939)
        (xy 146.016774 63.601898)
        (xy 146.094795 63.790256)
        (xy 146.208063 63.959774)
        (xy 146.252 64.003711)
        (xy 146.252001 67.168288)
        (xy 146.180063 67.240226)
        (xy 146.066795 67.409744)
        (xy 145.988774 67.598102)
        (xy 145.949 67.798061)
        (xy 127.338726 67.798061)
        (xy 127.509641 67.56892)
        (xy 127.634825 67.306099)
        (xy 127.679476 67.15889)
        (xy 127.558155 66.929)
        (xy 126.365 66.929)
        (xy 126.111 66.929)
        (xy 126.091 66.929)
        (xy 126.091 66.675)
        (xy 126.111 66.675)
        (xy 126.111 66.655)
        (xy 126.365 66.655)
        (xy 126.365 66.675)
        (xy 127.558155 66.675)
        (xy 127.679476 66.44511)
        (xy 127.634825 66.297901)
        (xy 127.509641 66.03508)
        (xy 127.335588 65.801731)
        (xy 127.119355 65.606822)
        (xy 127.002477 65.537201)
        (xy 127.067014 65.502706)
        (xy 127.293134 65.317134)
        (xy 127.478706 65.091014)
        (xy 127.616599 64.833034)
        (xy 127.701513 64.553111)
        (xy 127.730185 64.262)
        (xy 127.701513 63.970889)
        (xy 127.616599 63.690966)
        (xy 127.478706 63.432986)
        (xy 127.293134 63.206866)
        (xy 127.263313 63.182393)
        (xy 127.33218 63.161502)
        (xy 127.442494 63.102537)
        (xy 127.539185 63.023185)
        (xy 127.618537 62.926494)
        (xy 127.677502 62.81618)
        (xy 127.713812 62.696482)
        (xy 127.726072 62.572)
        (xy 127.726072 60.872)
        (xy 127.713812 60.747518)
        (xy 127.677502 60.62782)
        (xy 127.618537 60.517506)
        (xy 127.539185 60.420815)
        (xy 127.442494 60.341463)
        (xy 127.33218 60.282498)
        (xy 127.212482 60.246188)
        (xy 127.088 60.233928)
        (xy 125.388 60.233928)
        (xy 125.263518 60.246188)
        (xy 125.14382 60.282498)
        (xy 125.033506 60.341463)
        (xy 124.936815 60.420815)
        (xy 124.916 60.446178)
        (xy 124.916 59.182)
        (xy 133.167815 59.182)
        (xy 133.196487 59.473111)
        (xy 133.281401 59.753034)
        (xy 133.419294 60.011014)
        (xy 133.604866 60.237134)
        (xy 133.830986 60.422706)
        (xy 134.088966 60.560599)
        (xy 134.368889 60.645513)
        (xy 134.58705 60.667)
        (xy 134.73295 60.667)
        (xy 134.951111 60.645513)
        (xy 135.231034 60.560599)
        (xy 135.489014 60.422706)
        (xy 135.715134 60.237134)
        (xy 135.739607 60.207313)
        (xy 135.760498 60.27618)
        (xy 135.819463 60.386494)
        (xy 135.898815 60.483185)
        (xy 135.995506 60.562537)
        (xy 136.10582 60.621502)
        (xy 136.225518 60.657812)
        (xy 136.35 60.670072)
        (xy 138.05 60.670072)
        (xy 138.174482 60.657812)
        (xy 138.29418 60.621502)
        (xy 138.404494 60.562537)
        (xy 138.501185 60.483185)
        (xy 138.580537 60.386494)
        (xy 138.639502 60.27618)
        (xy 138.675812 60.156482)
        (xy 138.688072 60.032)
        (xy 138.688072 59.75)
        (xy 149.859751 59.75)
        (xy 149.8807 59.962697)
        (xy 149.942741 60.16722)
        (xy 150.043491 60.35571)
        (xy 150.179078 60.520922)
        (xy 150.34429 60.656509)
        (xy 150.53278 60.757259)
        (xy 150.737303 60.8193)
        (xy 150.896706 60.835)
        (xy 151.703294 60.835)
        (xy 151.862697 60.8193)
        (xy 152.06722 60.757259)
        (xy 152.25571 60.656509)
        (xy 152.420922 60.520922)
        (xy 152.556509 60.35571)
        (xy 152.657259 60.16722)
        (xy 152.7193 59.962697)
        (xy 152.740249 59.75)
        (xy 152.7193 59.537303)
        (xy 152.657259 59.33278)
        (xy 152.556509 59.14429)
        (xy 152.420922 58.979078)
        (xy 152.25571 58.843491)
        (xy 152.06722 58.742741)
        (xy 151.862697 58.6807)
        (xy 151.703294 58.665)
        (xy 150.896706 58.665)
        (xy 150.737303 58.6807)
        (xy 150.53278 58.742741)
        (xy 150.34429 58.843491)
        (xy 150.179078 58.979078)
        (xy 150.043491 59.14429)
        (xy 149.942741 59.33278)
        (xy 149.8807 59.537303)
        (xy 149.859751 59.75)
        (xy 138.688072 59.75)
        (xy 138.688072 58.332)
        (xy 138.675812 58.207518)
        (xy 138.639502 58.08782)
        (xy 138.580537 57.977506)
        (xy 138.501185 57.880815)
        (xy 138.404494 57.801463)
        (xy 138.29418 57.742498)
        (xy 138.174482 57.706188)
        (xy 138.05 57.693928)
        (xy 136.35 57.693928)
        (xy 136.225518 57.706188)
        (xy 136.10582 57.742498)
        (xy 135.995506 57.801463)
        (xy 135.898815 57.880815)
        (xy 135.819463 57.977506)
        (xy 135.760498 58.08782)
        (xy 135.739607 58.156687)
        (xy 135.715134 58.126866)
        (xy 135.489014 57.941294)
        (xy 135.231034 57.803401)
        (xy 134.951111 57.718487)
        (xy 134.73295 57.697)
        (xy 134.58705 57.697)
        (xy 134.368889 57.718487)
        (xy 134.088966 57.803401)
        (xy 133.830986 57.941294)
        (xy 133.604866 58.126866)
        (xy 133.419294 58.352986)
        (xy 133.281401 58.610966)
        (xy 133.196487 58.890889)
        (xy 133.167815 59.182)
        (xy 124.916 59.182)
        (xy 124.916 56.843196)
        (xy 153.49 56.810805)
      )
    )
  )
)
