G04 #@! TF.GenerationSoftware,KiCad,Pcbnew,(5.1.0)-1*
G04 #@! TF.CreationDate,2019-04-21T14:27:23+09:00*
G04 #@! TF.ProjectId,pl2303sa,706c3233-3033-4736-912e-6b696361645f,rev?*
G04 #@! TF.SameCoordinates,Original*
G04 #@! TF.FileFunction,Copper,L2,Bot*
G04 #@! TF.FilePolarity,Positive*
%FSLAX46Y46*%
G04 Gerber Fmt 4.6, Leading zero omitted, Abs format (unit mm)*
G04 Created by KiCad (PCBNEW (5.1.0)-1) date 2019-04-21 14:27:23*
%MOMM*%
%LPD*%
G04 APERTURE LIST*
%ADD10C,0.150000*%
%ADD11R,1.700000X1.700000*%
%ADD12O,1.700000X1.700000*%
%ADD13O,1.600000X0.900000*%
%ADD14C,0.800000*%
%ADD15C,0.250000*%
%ADD16C,0.254000*%
%ADD17C,0.350000*%
%ADD18O,1.200000X0.500000*%
G04 APERTURE END LIST*
D10*
X0Y0D02*
X0Y13716000D01*
X29994000Y-50000D02*
X0Y0D01*
X29994000Y13750000D02*
X29994000Y-50000D01*
X0Y13716000D02*
X29994000Y13750000D01*
D11*
X2032000Y8128000D03*
D12*
X2032000Y5588000D03*
X2032000Y3048000D03*
D11*
X12994000Y10668000D03*
D12*
X10454000Y10668000D03*
D13*
X27094000Y10100000D03*
X27094000Y3000000D03*
D14*
X12192000Y6096000D03*
X12192000Y4826000D03*
X12192000Y3556000D03*
X12192000Y2286000D03*
X16256000Y9652000D03*
X4826000Y11938000D03*
X7112000Y9652000D03*
X7112000Y8128000D03*
X18288000Y9652000D03*
X7112000Y11938000D03*
X18288000Y5842000D03*
X4826000Y9652000D03*
X4826000Y8128000D03*
X20066000Y9652000D03*
X16256000Y11938000D03*
X18288000Y11938000D03*
X20066000Y11938000D03*
X22352000Y11938000D03*
X22352000Y9652000D03*
X22806000Y6550000D03*
X22778000Y1950000D03*
D15*
X22806000Y1978000D02*
X22778000Y1950000D01*
X22806000Y6550000D02*
X22806000Y1978000D01*
D16*
G36*
X29284001Y661184D02*
G01*
X710000Y708817D01*
X710000Y2386808D01*
X760359Y2281080D01*
X934412Y2047731D01*
X1150645Y1852822D01*
X1400748Y1703843D01*
X1675109Y1606519D01*
X1905000Y1727186D01*
X1905000Y2921000D01*
X2159000Y2921000D01*
X2159000Y1727186D01*
X2388891Y1606519D01*
X2663252Y1703843D01*
X2913355Y1852822D01*
X3129588Y2047731D01*
X3132726Y2051939D01*
X21743000Y2051939D01*
X21743000Y1848061D01*
X21782774Y1648102D01*
X21860795Y1459744D01*
X21974063Y1290226D01*
X22118226Y1146063D01*
X22287744Y1032795D01*
X22476102Y954774D01*
X22676061Y915000D01*
X22879939Y915000D01*
X23079898Y954774D01*
X23268256Y1032795D01*
X23437774Y1146063D01*
X23581937Y1290226D01*
X23695205Y1459744D01*
X23773226Y1648102D01*
X23813000Y1848061D01*
X23813000Y2051939D01*
X23773226Y2251898D01*
X23695205Y2440256D01*
X23581937Y2609774D01*
X23566000Y2625711D01*
X23566000Y3000000D01*
X25653751Y3000000D01*
X25674700Y2787303D01*
X25736741Y2582780D01*
X25837491Y2394290D01*
X25973078Y2229078D01*
X26138290Y2093491D01*
X26326780Y1992741D01*
X26531303Y1930700D01*
X26690706Y1915000D01*
X27497294Y1915000D01*
X27656697Y1930700D01*
X27861220Y1992741D01*
X28049710Y2093491D01*
X28214922Y2229078D01*
X28350509Y2394290D01*
X28451259Y2582780D01*
X28513300Y2787303D01*
X28534249Y3000000D01*
X28513300Y3212697D01*
X28451259Y3417220D01*
X28350509Y3605710D01*
X28214922Y3770922D01*
X28049710Y3906509D01*
X27861220Y4007259D01*
X27656697Y4069300D01*
X27497294Y4085000D01*
X26690706Y4085000D01*
X26531303Y4069300D01*
X26326780Y4007259D01*
X26138290Y3906509D01*
X25973078Y3770922D01*
X25837491Y3605710D01*
X25736741Y3417220D01*
X25674700Y3212697D01*
X25653751Y3000000D01*
X23566000Y3000000D01*
X23566000Y5846289D01*
X23609937Y5890226D01*
X23723205Y6059744D01*
X23801226Y6248102D01*
X23841000Y6448061D01*
X23841000Y6651939D01*
X23801226Y6851898D01*
X23723205Y7040256D01*
X23609937Y7209774D01*
X23465774Y7353937D01*
X23296256Y7467205D01*
X23107898Y7545226D01*
X22907939Y7585000D01*
X22704061Y7585000D01*
X22504102Y7545226D01*
X22315744Y7467205D01*
X22146226Y7353937D01*
X22002063Y7209774D01*
X21888795Y7040256D01*
X21810774Y6851898D01*
X21771000Y6651939D01*
X21771000Y6448061D01*
X21810774Y6248102D01*
X21888795Y6059744D01*
X22002063Y5890226D01*
X22046000Y5846289D01*
X22046001Y2681712D01*
X21974063Y2609774D01*
X21860795Y2440256D01*
X21782774Y2251898D01*
X21743000Y2051939D01*
X3132726Y2051939D01*
X3303641Y2281080D01*
X3428825Y2543901D01*
X3473476Y2691110D01*
X3352155Y2921000D01*
X2159000Y2921000D01*
X1905000Y2921000D01*
X1885000Y2921000D01*
X1885000Y3175000D01*
X1905000Y3175000D01*
X1905000Y3195000D01*
X2159000Y3195000D01*
X2159000Y3175000D01*
X3352155Y3175000D01*
X3473476Y3404890D01*
X3428825Y3552099D01*
X3303641Y3814920D01*
X3129588Y4048269D01*
X2913355Y4243178D01*
X2796477Y4312799D01*
X2861014Y4347294D01*
X3087134Y4532866D01*
X3272706Y4758986D01*
X3410599Y5016966D01*
X3495513Y5296889D01*
X3524185Y5588000D01*
X3495513Y5879111D01*
X3410599Y6159034D01*
X3272706Y6417014D01*
X3087134Y6643134D01*
X3057313Y6667607D01*
X3126180Y6688498D01*
X3236494Y6747463D01*
X3333185Y6826815D01*
X3412537Y6923506D01*
X3471502Y7033820D01*
X3507812Y7153518D01*
X3520072Y7278000D01*
X3520072Y8978000D01*
X3507812Y9102482D01*
X3471502Y9222180D01*
X3412537Y9332494D01*
X3333185Y9429185D01*
X3236494Y9508537D01*
X3126180Y9567502D01*
X3006482Y9603812D01*
X2882000Y9616072D01*
X1182000Y9616072D01*
X1057518Y9603812D01*
X937820Y9567502D01*
X827506Y9508537D01*
X730815Y9429185D01*
X710000Y9403822D01*
X710000Y10668000D01*
X8961815Y10668000D01*
X8990487Y10376889D01*
X9075401Y10096966D01*
X9213294Y9838986D01*
X9398866Y9612866D01*
X9624986Y9427294D01*
X9882966Y9289401D01*
X10162889Y9204487D01*
X10381050Y9183000D01*
X10526950Y9183000D01*
X10745111Y9204487D01*
X11025034Y9289401D01*
X11283014Y9427294D01*
X11509134Y9612866D01*
X11533607Y9642687D01*
X11554498Y9573820D01*
X11613463Y9463506D01*
X11692815Y9366815D01*
X11789506Y9287463D01*
X11899820Y9228498D01*
X12019518Y9192188D01*
X12144000Y9179928D01*
X13844000Y9179928D01*
X13968482Y9192188D01*
X14088180Y9228498D01*
X14198494Y9287463D01*
X14295185Y9366815D01*
X14374537Y9463506D01*
X14433502Y9573820D01*
X14469812Y9693518D01*
X14482072Y9818000D01*
X14482072Y10100000D01*
X25653751Y10100000D01*
X25674700Y9887303D01*
X25736741Y9682780D01*
X25837491Y9494290D01*
X25973078Y9329078D01*
X26138290Y9193491D01*
X26326780Y9092741D01*
X26531303Y9030700D01*
X26690706Y9015000D01*
X27497294Y9015000D01*
X27656697Y9030700D01*
X27861220Y9092741D01*
X28049710Y9193491D01*
X28214922Y9329078D01*
X28350509Y9494290D01*
X28451259Y9682780D01*
X28513300Y9887303D01*
X28534249Y10100000D01*
X28513300Y10312697D01*
X28451259Y10517220D01*
X28350509Y10705710D01*
X28214922Y10870922D01*
X28049710Y11006509D01*
X27861220Y11107259D01*
X27656697Y11169300D01*
X27497294Y11185000D01*
X26690706Y11185000D01*
X26531303Y11169300D01*
X26326780Y11107259D01*
X26138290Y11006509D01*
X25973078Y10870922D01*
X25837491Y10705710D01*
X25736741Y10517220D01*
X25674700Y10312697D01*
X25653751Y10100000D01*
X14482072Y10100000D01*
X14482072Y11518000D01*
X14469812Y11642482D01*
X14433502Y11762180D01*
X14374537Y11872494D01*
X14295185Y11969185D01*
X14198494Y12048537D01*
X14088180Y12107502D01*
X13968482Y12143812D01*
X13844000Y12156072D01*
X12144000Y12156072D01*
X12019518Y12143812D01*
X11899820Y12107502D01*
X11789506Y12048537D01*
X11692815Y11969185D01*
X11613463Y11872494D01*
X11554498Y11762180D01*
X11533607Y11693313D01*
X11509134Y11723134D01*
X11283014Y11908706D01*
X11025034Y12046599D01*
X10745111Y12131513D01*
X10526950Y12153000D01*
X10381050Y12153000D01*
X10162889Y12131513D01*
X9882966Y12046599D01*
X9624986Y11908706D01*
X9398866Y11723134D01*
X9213294Y11497014D01*
X9075401Y11239034D01*
X8990487Y10959111D01*
X8961815Y10668000D01*
X710000Y10668000D01*
X710000Y13006804D01*
X29284000Y13039195D01*
X29284001Y661184D01*
X29284001Y661184D01*
G37*
X29284001Y661184D02*
X710000Y708817D01*
X710000Y2386808D01*
X760359Y2281080D01*
X934412Y2047731D01*
X1150645Y1852822D01*
X1400748Y1703843D01*
X1675109Y1606519D01*
X1905000Y1727186D01*
X1905000Y2921000D01*
X2159000Y2921000D01*
X2159000Y1727186D01*
X2388891Y1606519D01*
X2663252Y1703843D01*
X2913355Y1852822D01*
X3129588Y2047731D01*
X3132726Y2051939D01*
X21743000Y2051939D01*
X21743000Y1848061D01*
X21782774Y1648102D01*
X21860795Y1459744D01*
X21974063Y1290226D01*
X22118226Y1146063D01*
X22287744Y1032795D01*
X22476102Y954774D01*
X22676061Y915000D01*
X22879939Y915000D01*
X23079898Y954774D01*
X23268256Y1032795D01*
X23437774Y1146063D01*
X23581937Y1290226D01*
X23695205Y1459744D01*
X23773226Y1648102D01*
X23813000Y1848061D01*
X23813000Y2051939D01*
X23773226Y2251898D01*
X23695205Y2440256D01*
X23581937Y2609774D01*
X23566000Y2625711D01*
X23566000Y3000000D01*
X25653751Y3000000D01*
X25674700Y2787303D01*
X25736741Y2582780D01*
X25837491Y2394290D01*
X25973078Y2229078D01*
X26138290Y2093491D01*
X26326780Y1992741D01*
X26531303Y1930700D01*
X26690706Y1915000D01*
X27497294Y1915000D01*
X27656697Y1930700D01*
X27861220Y1992741D01*
X28049710Y2093491D01*
X28214922Y2229078D01*
X28350509Y2394290D01*
X28451259Y2582780D01*
X28513300Y2787303D01*
X28534249Y3000000D01*
X28513300Y3212697D01*
X28451259Y3417220D01*
X28350509Y3605710D01*
X28214922Y3770922D01*
X28049710Y3906509D01*
X27861220Y4007259D01*
X27656697Y4069300D01*
X27497294Y4085000D01*
X26690706Y4085000D01*
X26531303Y4069300D01*
X26326780Y4007259D01*
X26138290Y3906509D01*
X25973078Y3770922D01*
X25837491Y3605710D01*
X25736741Y3417220D01*
X25674700Y3212697D01*
X25653751Y3000000D01*
X23566000Y3000000D01*
X23566000Y5846289D01*
X23609937Y5890226D01*
X23723205Y6059744D01*
X23801226Y6248102D01*
X23841000Y6448061D01*
X23841000Y6651939D01*
X23801226Y6851898D01*
X23723205Y7040256D01*
X23609937Y7209774D01*
X23465774Y7353937D01*
X23296256Y7467205D01*
X23107898Y7545226D01*
X22907939Y7585000D01*
X22704061Y7585000D01*
X22504102Y7545226D01*
X22315744Y7467205D01*
X22146226Y7353937D01*
X22002063Y7209774D01*
X21888795Y7040256D01*
X21810774Y6851898D01*
X21771000Y6651939D01*
X21771000Y6448061D01*
X21810774Y6248102D01*
X21888795Y6059744D01*
X22002063Y5890226D01*
X22046000Y5846289D01*
X22046001Y2681712D01*
X21974063Y2609774D01*
X21860795Y2440256D01*
X21782774Y2251898D01*
X21743000Y2051939D01*
X3132726Y2051939D01*
X3303641Y2281080D01*
X3428825Y2543901D01*
X3473476Y2691110D01*
X3352155Y2921000D01*
X2159000Y2921000D01*
X1905000Y2921000D01*
X1885000Y2921000D01*
X1885000Y3175000D01*
X1905000Y3175000D01*
X1905000Y3195000D01*
X2159000Y3195000D01*
X2159000Y3175000D01*
X3352155Y3175000D01*
X3473476Y3404890D01*
X3428825Y3552099D01*
X3303641Y3814920D01*
X3129588Y4048269D01*
X2913355Y4243178D01*
X2796477Y4312799D01*
X2861014Y4347294D01*
X3087134Y4532866D01*
X3272706Y4758986D01*
X3410599Y5016966D01*
X3495513Y5296889D01*
X3524185Y5588000D01*
X3495513Y5879111D01*
X3410599Y6159034D01*
X3272706Y6417014D01*
X3087134Y6643134D01*
X3057313Y6667607D01*
X3126180Y6688498D01*
X3236494Y6747463D01*
X3333185Y6826815D01*
X3412537Y6923506D01*
X3471502Y7033820D01*
X3507812Y7153518D01*
X3520072Y7278000D01*
X3520072Y8978000D01*
X3507812Y9102482D01*
X3471502Y9222180D01*
X3412537Y9332494D01*
X3333185Y9429185D01*
X3236494Y9508537D01*
X3126180Y9567502D01*
X3006482Y9603812D01*
X2882000Y9616072D01*
X1182000Y9616072D01*
X1057518Y9603812D01*
X937820Y9567502D01*
X827506Y9508537D01*
X730815Y9429185D01*
X710000Y9403822D01*
X710000Y10668000D01*
X8961815Y10668000D01*
X8990487Y10376889D01*
X9075401Y10096966D01*
X9213294Y9838986D01*
X9398866Y9612866D01*
X9624986Y9427294D01*
X9882966Y9289401D01*
X10162889Y9204487D01*
X10381050Y9183000D01*
X10526950Y9183000D01*
X10745111Y9204487D01*
X11025034Y9289401D01*
X11283014Y9427294D01*
X11509134Y9612866D01*
X11533607Y9642687D01*
X11554498Y9573820D01*
X11613463Y9463506D01*
X11692815Y9366815D01*
X11789506Y9287463D01*
X11899820Y9228498D01*
X12019518Y9192188D01*
X12144000Y9179928D01*
X13844000Y9179928D01*
X13968482Y9192188D01*
X14088180Y9228498D01*
X14198494Y9287463D01*
X14295185Y9366815D01*
X14374537Y9463506D01*
X14433502Y9573820D01*
X14469812Y9693518D01*
X14482072Y9818000D01*
X14482072Y10100000D01*
X25653751Y10100000D01*
X25674700Y9887303D01*
X25736741Y9682780D01*
X25837491Y9494290D01*
X25973078Y9329078D01*
X26138290Y9193491D01*
X26326780Y9092741D01*
X26531303Y9030700D01*
X26690706Y9015000D01*
X27497294Y9015000D01*
X27656697Y9030700D01*
X27861220Y9092741D01*
X28049710Y9193491D01*
X28214922Y9329078D01*
X28350509Y9494290D01*
X28451259Y9682780D01*
X28513300Y9887303D01*
X28534249Y10100000D01*
X28513300Y10312697D01*
X28451259Y10517220D01*
X28350509Y10705710D01*
X28214922Y10870922D01*
X28049710Y11006509D01*
X27861220Y11107259D01*
X27656697Y11169300D01*
X27497294Y11185000D01*
X26690706Y11185000D01*
X26531303Y11169300D01*
X26326780Y11107259D01*
X26138290Y11006509D01*
X25973078Y10870922D01*
X25837491Y10705710D01*
X25736741Y10517220D01*
X25674700Y10312697D01*
X25653751Y10100000D01*
X14482072Y10100000D01*
X14482072Y11518000D01*
X14469812Y11642482D01*
X14433502Y11762180D01*
X14374537Y11872494D01*
X14295185Y11969185D01*
X14198494Y12048537D01*
X14088180Y12107502D01*
X13968482Y12143812D01*
X13844000Y12156072D01*
X12144000Y12156072D01*
X12019518Y12143812D01*
X11899820Y12107502D01*
X11789506Y12048537D01*
X11692815Y11969185D01*
X11613463Y11872494D01*
X11554498Y11762180D01*
X11533607Y11693313D01*
X11509134Y11723134D01*
X11283014Y11908706D01*
X11025034Y12046599D01*
X10745111Y12131513D01*
X10526950Y12153000D01*
X10381050Y12153000D01*
X10162889Y12131513D01*
X9882966Y12046599D01*
X9624986Y11908706D01*
X9398866Y11723134D01*
X9213294Y11497014D01*
X9075401Y11239034D01*
X8990487Y10959111D01*
X8961815Y10668000D01*
X710000Y10668000D01*
X710000Y13006804D01*
X29284000Y13039195D01*
X29284001Y661184D01*
D17*
X12192000Y6096000D03*
X12192000Y4826000D03*
X12192000Y3556000D03*
X12192000Y2286000D03*
X16256000Y9652000D03*
X4826000Y11938000D03*
X7112000Y9652000D03*
X7112000Y8128000D03*
X18288000Y9652000D03*
X7112000Y11938000D03*
X18288000Y5842000D03*
X4826000Y9652000D03*
X4826000Y8128000D03*
X20066000Y9652000D03*
X16256000Y11938000D03*
X18288000Y11938000D03*
X20066000Y11938000D03*
X22352000Y11938000D03*
X22352000Y9652000D03*
X22806000Y6550000D03*
X22778000Y1950000D03*
X2032000Y8128000D03*
X2032000Y5588000D03*
X2032000Y3048000D03*
X12994000Y10668000D03*
X10454000Y10668000D03*
D18*
X27094000Y10100000D03*
X27094000Y3000000D03*
M02*
